<?xml version="1.0" encoding="utf-8"?>
<!-- Generator: Adobe Illustrator 21.1.0, SVG Export Plug-In . SVG Version: 6.00 Build 0)  -->
<svg version="1.1" id="Слой_1" xmlns="http://www.w3.org/2000/svg" xmlns:xlink="http://www.w3.org/1999/xlink" x="0px" y="0px"
	 viewBox="0 0 38 38" style="enable-background:new 0 0 38 38;" xml:space="preserve">
<style type="text/css">
	.st0{fill:#D0021B;}
	.st1{fill:#FFFFFF;}
</style>
<circle class="st0" cx="19" cy="19" r="16.9"/>
<g>
	<g>
		<g>
			<path class="st1" d="M27.2,24l-1.9-1.2l-1.7-1.1c-0.3-0.2-0.8-0.1-1,0.2l-1,1.3c-0.2,0.3-0.6,0.4-0.9,0.2
				c-0.7-0.4-1.5-0.8-3.3-2.6s-2.2-2.6-2.6-3.3c-0.2-0.3-0.1-0.7,0.2-0.9l1.3-1c0.3-0.2,0.4-0.7,0.2-1l-1.1-1.6l-1.3-1.9
				c-0.2-0.3-0.7-0.4-1-0.2l-1.5,0.9c-0.4,0.2-0.7,0.6-0.8,1.1c-0.4,1.5-0.5,4.7,4.7,9.9s8.5,5.1,9.9,4.7c0.4-0.1,0.8-0.4,1.1-0.8
				l0.9-1.5C27.6,24.6,27.5,24.2,27.2,24z"/>
			<path class="st1" d="M20.2,13.2c2.7,0,4.9,2.2,4.9,4.9c0,0.2,0.1,0.3,0.3,0.3c0.2,0,0.3-0.1,0.3-0.3c0-3.1-2.5-5.5-5.5-5.5
				c-0.2,0-0.3,0.1-0.3,0.3C19.9,13.1,20.1,13.2,20.2,13.2z"/>
			<path class="st1" d="M20.2,14.9c1.8,0,3.2,1.4,3.2,3.2c0,0.2,0.1,0.3,0.3,0.3c0.2,0,0.3-0.1,0.3-0.3c0-2.1-1.7-3.8-3.8-3.8
				c-0.2,0-0.3,0.1-0.3,0.3C19.9,14.8,20.1,14.9,20.2,14.9z"/>
			<path class="st1" d="M20.2,16.7c0.8,0,1.5,0.7,1.5,1.5c0,0.2,0.1,0.3,0.3,0.3c0.2,0,0.3-0.1,0.3-0.3c0-1.1-0.9-2-2-2
				c-0.2,0-0.3,0.1-0.3,0.3C19.9,16.5,20.1,16.7,20.2,16.7z"/>
		</g>
	</g>
</g>
</svg>
