<?xml version="1.0" encoding="utf-8"?>
<!-- Generator: Adobe Illustrator 21.1.0, SVG Export Plug-In . SVG Version: 6.00 Build 0)  -->
<svg version="1.1" id="Слой_1" xmlns="http://www.w3.org/2000/svg" xmlns:xlink="http://www.w3.org/1999/xlink" x="0px" y="0px"
	 viewBox="0 0 55 67.6" style="enable-background:new 0 0 55 67.6;" xml:space="preserve">
<style type="text/css">
	.st0{fill:#6D4C9F;}
	.st1{fill:none;stroke:#6D4C9F;stroke-width:6;stroke-miterlimit:10;}
	.st2{fill:none;stroke:#6D4C9F;stroke-width:6;stroke-linecap:round;stroke-linejoin:round;stroke-miterlimit:10;}
</style>
<g>
	<path class="st0" d="M38,29.6c-6.6-7.8-6.3-16.7-6.3-29.6C10.5,8,15.4,31,14.8,38c-5.3-4.4-6.3-14.8-6.3-14.8
		C2.8,26.1,0,33.9,0,40.2c0,15.2,12.3,27.5,27.5,27.5C42.7,67.6,55,55.3,55,40.2c0-9-6.6-13.2-6.5-25.5C39.1,17.3,37.4,24.8,38,29.6
		z M28.5,63.4c-13.4,0-24.3-11.3-24.3-24c0-3,0.1-5.3,2.1-7.7c-0.2,1.3,3,12.8,13.3,12.2c-0.5-8.7-2.8-30,8.1-37.4
		c-1,11.6,1.9,27.2,14.5,29.4c-0.7-4.7-0.6-12.4,2.6-13.8c0.4,7.1,5.6,11.5,5.6,18.4C50.6,52.9,38.6,63.4,28.5,63.4z"/>
	<path class="st0" d="M39.2,45.9c-0.8-1.3-1.7-2.6-2-4.8l-0.1-0.8l-0.8,0.4c-2.3,1.1-3.2,2.8-3.4,4.5c-1.4-1.9-1.8-4.4-2.3-7.8
		L30.5,36l-0.8,0.5c-6.1,3.4-5.1,9.6-4.5,13c-1-1.4-1.5-3.2-1.5-3.2l-0.2-0.9l-0.8,0.5c-2.1,1.5-2.7,4.7-2.3,7
		c0.4,2.4,1.6,4.6,3.4,6.2l0.2,0.2l4.4-0.7l-1.5-0.9c-2-1.2-3.5-3.3-3.8-5.5c0-0.3-0.1-0.6-0.1-0.8c0.3,0.5,0.7,0.9,1.2,1.3
		c1.2,1,2.6,1.3,4.1,1l0.6-0.1l-0.1-0.6c-0.1-0.3-0.1-0.5-0.2-0.8c-0.6-2.9-1.7-8-0.1-11c0.6,4.2,2.8,8.4,7.1,8.6l0.9,0l-0.3-0.9
		c-0.3-1.1-0.5-2.2-0.5-3c0.3,0.6,0.7,1.1,1,1.6c0.6,0.9,1.2,1.7,1.4,2.8c0.3,2-0.4,4.2-1.9,6l-1.1,1.3l4.3-0.7l0.2-0.3
		c1.3-2.1,1.8-4.5,1.4-7C40.7,48.1,40,47,39.2,45.9z"/>
</g>
</svg>
