<?xml version="1.0" encoding="utf-8"?>
<!-- Generator: Adobe Illustrator 21.1.0, SVG Export Plug-In . SVG Version: 6.00 Build 0)  -->
<svg version="1.1" id="Слой_1" xmlns="http://www.w3.org/2000/svg" xmlns:xlink="http://www.w3.org/1999/xlink" x="0px" y="0px"
	 viewBox="0 0 53.9 65.1" style="enable-background:new 0 0 53.9 65.1;" xml:space="preserve">
<style type="text/css">
	.st0{fill:#6D4C9F;}
	.st1{fill:none;stroke:#6D4C9F;stroke-width:6;stroke-miterlimit:10;}
	.st2{fill:none;stroke:#6D4C9F;stroke-width:6;stroke-linecap:round;stroke-linejoin:round;stroke-miterlimit:10;}
</style>
<g>
	<g>
		<path class="st0" d="M39.5,30.2c-0.7,0.7-0.7,1.9,0,2.7c0.7,0.7,1.9,0.7,2.7,0c1.2-1.2,3.1-1.2,4.3,0c0.4,0.4,0.9,0.6,1.3,0.6
			c0.5,0,1-0.2,1.3-0.6c0.7-0.7,0.7-1.9,0-2.7C46.5,27.5,42.1,27.5,39.5,30.2z"/>
		<path class="st0" d="M35.6,28.6c0.7,0.7,1.9,0.7,2.7,0c1.6-1.6,3.7-2.5,6-2.5c2.3,0,4.4,0.9,6,2.5c0.4,0.4,0.9,0.6,1.3,0.6
			c0.5,0,1-0.2,1.3-0.6c0.7-0.7,0.7-1.9,0-2.7c-2.3-2.3-5.4-3.6-8.7-3.6c-3.3,0-6.4,1.3-8.7,3.6C34.9,26.6,34.9,27.8,35.6,28.6z"/>
		<path class="st0" d="M51.7,36.7H36.9c-1.2,0-2.2,1-2.2,2.2v24c0,1.2,1,2.2,2.2,2.2h14.7c1.2,0,2.2-1,2.2-2.2v-24
			C53.9,37.7,52.9,36.7,51.7,36.7z M49.4,60.6H39.2V41.1h10.3V60.6z"/>
		<path class="st0" d="M46.1,53.2h-3.6c-0.5,0-0.7,0.3-0.5,0.8l1.8,3.2c0.2,0.4,0.6,0.4,0.9,0l1.8-3.2
			C46.8,53.6,46.6,53.2,46.1,53.2z"/>
		<path class="st0" d="M42.5,48.5h3.6c0.5,0,0.7-0.3,0.5-0.8l-1.8-3.2c-0.2-0.4-0.6-0.4-0.9,0l-1.8,3.2C41.8,48.2,42,48.5,42.5,48.5
			z"/>
	</g>
	<path class="st0" d="M23.6,37.4V26.1h-4.1v13.6l1,0.6c3.2,2,5.1,5.4,5.1,9.1c0,5.9-4.8,10.7-10.7,10.7C8.9,60,4.1,55.2,4.1,49.3
		c0-3.7,1.9-7.1,5.1-9.1l1-0.6V8.8c0-2.6,2.1-4.7,4.7-4.7s4.7,2.1,4.7,4.7v5h4.1v-5c0-4.8-3.9-8.8-8.8-8.8S6,3.9,6,8.8v28.6
		c-3.8,2.8-6,7.2-6,11.9c0,8.2,6.6,14.8,14.8,14.8c8.2,0,14.8-6.6,14.8-14.8C29.6,44.6,27.4,40.2,23.6,37.4L23.6,37.4z M23.6,37.4"
		/>
	<rect x="19.5" y="17.8" class="st0" width="4.1" height="4.1"/>
	<path class="st0" d="M12.8,10.3v33.2c-2.6,0.9-4.5,3.3-4.5,6.2c0,3.6,2.9,6.6,6.6,6.6s6.6-2.9,6.6-6.6c0-2.9-1.9-5.4-4.5-6.2V10.3
		H12.8z M12.8,10.3"/>
</g>
</svg>
