<?xml version="1.0" encoding="utf-8"?>
<!-- Generator: Adobe Illustrator 21.1.0, SVG Export Plug-In . SVG Version: 6.00 Build 0)  -->
<svg version="1.1" id="Слой_1" xmlns="http://www.w3.org/2000/svg" xmlns:xlink="http://www.w3.org/1999/xlink" x="0px" y="0px"
	 viewBox="0 0 53.2 68.3" style="enable-background:new 0 0 53.2 68.3;" xml:space="preserve">
<style type="text/css">
	.st0{fill:#6D4C9F;}
	.st1{fill:none;stroke:#6D4C9F;stroke-width:6;stroke-miterlimit:10;}
	.st2{fill:none;stroke:#6D4C9F;stroke-width:6;stroke-linecap:round;stroke-linejoin:round;stroke-miterlimit:10;}
</style>
<g>
	<path class="st0" d="M47.9,50.5h-9.5c-1.9,0-5.4-1.4-5.4-4.1v-3.3c0-1.7,1.4-2.8,2.8-3.5v-1.6c-2.2,2-5.1,3.1-8.2,3.1
		c-4,0-7.8-2-10-5.2H4.1c-2.3,0-4.1-1.9-4.1-4.1v-6.4c0-2.3,1.9-4.1,4.1-4.1h13.6c1.1-1.5,2.6-2.7,4.2-3.5v-2.3h-2.9
		c-2.3,0-4.1-1.9-4.1-4.1V8.8c0-2.3,1.9-4.1,4.1-4.1h3.2c0.4-2,1.5-4.7,3.8-4.7H29c2.4,0,3.4,2.7,3.8,4.7h3.2c2.3,0,4.1,1.9,4.1,4.1
		v2.8c0,2.3-1.9,4.1-4.1,4.1h-2.9V18c1.6,0.8,3.1,2,4.2,3.5h2.5c5.7,0,10.4,4.7,10.4,10.4v7.5c1.4,0.4,2.9,1.2,2.9,3.1v3.9
		C53.2,49.1,49.8,50.5,47.9,50.5z M37.4,45.8c0.3,0.2,0.7,0.3,1,0.3h9.5c0.2,0,0.7-0.2,1-0.3v-2.3c-0.3-0.1-0.6-0.1-0.8-0.1
		l-2.2-0.3V31.9c0-3.3-2.7-6-6-6H35l-0.6-1.1c-0.9-1.5-2.4-2.7-4.1-3.3L28.7,21v-7.1l-0.5-2.6l2.7,0.1h4.9V9.1h-7V6.6
		c0-0.5-0.3-1.6-0.6-2.2h-1.2c-0.3,0.7-0.6,1.8-0.6,2.2v2.4h-7v2.2h7.6l-0.5,2.6l0,7l-1.5,0.5c-1.7,0.6-3.2,1.8-4.1,3.3l-0.6,1.1
		H4.4v5.8H20l0.6,1.1c1.4,2.5,4,4,6.9,4c2.9,0,5.5-1.6,6.9-4l0.6-1.1h1.7c1.9,0,3.4,1.5,3.4,3.4v8l-1.8,0.4c-0.3,0.1-0.7,0.2-1,0.4
		V45.8z"/>
	<path class="st0" d="M43,68.3c-2.8,0-5.1-2.4-5.1-5.3c0-0.5,0.1-1,0.2-1.5c0-0.1,0-0.1,0-0.2l0.1-0.3l4.7-8.2l4.8,8.2
		c0.1,0.1,0.1,0.3,0.1,0.4c0.1,0.5,0.2,1,0.2,1.5C48.1,65.9,45.8,68.3,43,68.3z M40.5,62.1c-0.1,0.3-0.1,0.5-0.1,0.8
		c0,1.5,1.2,2.8,2.6,2.8s2.6-1.2,2.6-2.8c0-0.3,0-0.5-0.1-0.8l0-0.1L43,57.8L40.5,62.1z"/>
	<path class="st0" d="M29.1,59.7c-2.1,0-3.7-1.7-3.7-3.8c0-0.4,0.1-0.7,0.2-1.1c0,0,0-0.1,0-0.1l0.1-0.3l3.4-5.9l3.5,6
		c0,0.1,0.1,0.2,0.1,0.3c0.1,0.3,0.1,0.7,0.1,1C32.8,58,31.1,59.7,29.1,59.7z M27.9,55.6c0,0.1,0,0.2,0,0.3c0,0.7,0.5,1.3,1.2,1.3
		c0.7,0,1.2-0.6,1.2-1.3c0-0.1,0-0.3-0.1-0.4l0,0l-1.1-1.9L27.9,55.6z"/>
	<rect x="20.8" y="11.3" class="st0" width="13.2" height="2.5"/>
	<rect x="23.2" y="6.5" class="st0" width="10.8" height="2.5"/>
	<rect x="35.9" y="40.6" class="st0" width="13.2" height="2.5"/>
</g>
</svg>
