<?xml version="1.0" encoding="utf-8"?>
<!-- Generator: Adobe Illustrator 21.1.0, SVG Export Plug-In . SVG Version: 6.00 Build 0)  -->
<svg version="1.1" id="Слой_1" xmlns="http://www.w3.org/2000/svg" xmlns:xlink="http://www.w3.org/1999/xlink" x="0px" y="0px"
	 viewBox="0 0 65.1 67.5" style="enable-background:new 0 0 65.1 67.5;" xml:space="preserve">
<style type="text/css">
	.st0{fill:#6D4C9F;}
	.st1{fill:none;stroke:#6D4C9F;stroke-width:6;stroke-miterlimit:10;}
	.st2{fill:none;stroke:#6D4C9F;stroke-width:6;stroke-linecap:round;stroke-linejoin:round;stroke-miterlimit:10;}
	.st3{fill:#6D4C9F;stroke:#6D4C9F;stroke-width:0.5;stroke-miterlimit:10;}
	.st4{fill:#6D4C9F;stroke:#FFFFFF;stroke-width:0.75;stroke-linecap:round;stroke-linejoin:round;stroke-miterlimit:10;}
</style>
<g>
	<path class="st3" d="M31.5,4.4c-0.2,1.8,0.9,3.5,3.2,4.9c0.5,0.3,0.7,0.5,0.8,0.7c0,0,0,0,0,0c0.1,0.1,0.2,0.2,0.2,0.4
		c0,0.4-0.6,1.3-1.3,1.8c-1,0.8-1.2,2.3-0.4,3.3c0.7,1,2.1,1.2,3,0.5c0.3-0.3,3.2-2.7,3-5.9c-0.1-1.3-0.7-3.1-3-4.6
		c-0.1-0.1-0.2-0.2-0.2-0.4c0-0.1,0.1-0.3,0.2-0.4c0.8-0.6,1.1-1.7,0.8-2.7c-0.2-0.6-0.6-1.1-1.1-1.4c-0.5-0.2-1.1-0.3-1.6-0.1
		C34.5,0.6,31.8,1.7,31.5,4.4z"/>
	<path class="st3" d="M55.8,12.8c-0.2,1.8,0.9,3.5,3.2,4.9c0.4,0.2,0.7,0.5,0.9,0.7c0.1,0.1,0.1,0.2,0.1,0.3c0,0.4-0.6,1.3-1.3,1.8
		c-1,0.8-1.1,2.3-0.4,3.3c0.7,1,2.1,1.2,3,0.5c0.3-0.3,3.2-2.7,3-5.9c-0.1-1.3-0.7-3.1-3-4.6c-0.1-0.1-0.2-0.2-0.2-0.4
		c0-0.1,0.1-0.3,0.2-0.4c0.8-0.6,1.1-1.7,0.8-2.7C62,9.7,61.6,9.2,61,8.9c-0.5-0.3-1.1-0.3-1.6-0.1C58.9,9,56.1,10.2,55.8,12.8z"/>
	<path class="st3" d="M64.7,31.5c0-0.1-0.1-0.3-0.2-0.4c0,0,0,0,0,0c0,0-0.1-0.1-0.1-0.1c-0.1-0.1-0.1-0.2-0.2-0.3
		c-0.1-0.1-0.1-0.1-0.2-0.2c-0.1-0.1-0.1-0.1-0.2-0.2c-0.1-0.1-0.2-0.1-0.3-0.2c0,0-0.1-0.1-0.1-0.1L43.4,19.6
		c-0.7-0.4-1.6-0.4-2.3,0l-4.4,2.2l-12.3-6.1c-0.7-0.4-1.6-0.4-2.3,0L8,23.1c-0.8,0.4-1.4,1.3-1.3,2.3c0,0.9,0.5,1.8,1.4,2.2
		l21.1,10.7L9.4,49c0,0-0.1,0.1-0.1,0.1c-0.1,0.1-0.2,0.1-0.3,0.2c-0.1,0.1-0.1,0.1-0.2,0.2c-0.1,0.1-0.1,0.1-0.2,0.2
		c-0.1,0.1-0.1,0.2-0.2,0.3c0,0-0.1,0.1-0.1,0.1c0,0,0,0,0,0c-0.1,0.1-0.1,0.3-0.2,0.4c0,0.1,0,0.2-0.1,0.3c0,0.1,0,0.2,0,0.2
		c0,0.1,0,0.2,0,0.3c0,0.1,0,0.1,0,0.2c0,0.1,0,0.2,0.1,0.3c0,0,0,0.1,0,0.1c0,0.2,0.1,0.3,0.2,0.5c0,0,0,0,0,0c0,0,0,0,0,0
		c0.1,0.2,0.2,0.3,0.4,0.5c0,0,0.1,0.1,0.1,0.1c0.1,0.1,0.2,0.2,0.4,0.3c0,0,0.1,0.1,0.1,0.1c0,0,0,0,0,0l25.2,13.5
		c0.1,0.1,0.2,0.1,0.3,0.1c0.1,0,0.1,0.1,0.2,0.1c0.2,0.1,0.4,0.1,0.6,0.1h0c0.2,0,0.4,0,0.6-0.1c0.1,0,0.1,0,0.2-0.1
		c0.1,0,0.2-0.1,0.3-0.1l25-12.7c1.3-0.6,1.7-2.2,1.1-3.4c0-0.1-0.1-0.1-0.1-0.2c-0.2-0.7-0.6-1.4-1.3-1.7l-12.5-6.3l14.5-8.1l0,0
		l0,0c0,0,0.1,0,0.1-0.1c0.1-0.1,0.2-0.1,0.3-0.2c0.1,0,0.1-0.1,0.2-0.2c0.1-0.1,0.1-0.1,0.2-0.2c0.1-0.1,0.1-0.2,0.2-0.3
		c0,0,0.1-0.1,0.1-0.1c0,0,0,0,0,0c0.1-0.1,0.1-0.2,0.1-0.3c0.1-0.3,0.1-0.6,0.1-0.9c0-0.1,0-0.1,0-0.2
		C64.8,31.9,64.8,31.7,64.7,31.5C64.7,31.5,64.7,31.5,64.7,31.5z M14.7,25.3l8.5-4.5l8,4L23,29.5L14.7,25.3z M55.8,51.7l-20,10.1
		L16,51.2l18.8-10.1L55.8,51.7z M43.6,39.9L35.9,36l-7.5-3.8l9.4-5.4l4.3-2.2L57,32.4L43.6,39.9z"/>
	<path class="st3" d="M8.8,40.8c-0.1-1.3-0.7-3.1-3-4.6c-0.1-0.1-0.2-0.2-0.2-0.4c0-0.1,0.1-0.3,0.2-0.4c0.8-0.6,1.1-1.7,0.8-2.7
		c-0.2-0.6-0.6-1.1-1.1-1.4c-0.5-0.3-1.1-0.3-1.6-0.1c-0.6,0.2-3.4,1.3-3.6,4c-0.2,1.8,0.9,3.5,3.2,4.9c0.5,0.3,0.8,0.6,0.9,0.7
		c0.1,0.1,0.1,0.2,0.1,0.3c0,0.4-0.6,1.3-1.3,1.8c-1,0.8-1.1,2.3-0.4,3.3c0.7,1,2.1,1.2,3,0.5C6.2,46.5,9,44.1,8.8,40.8z"/>
</g>
</svg>
