<?xml version="1.0" encoding="utf-8"?>
<!-- Generator: Adobe Illustrator 17.1.0, SVG Export Plug-In . SVG Version: 6.00 Build 0)  -->
<!DOCTYPE svg PUBLIC "-//W3C//DTD SVG 1.1//EN" "http://www.w3.org/Graphics/SVG/1.1/DTD/svg11.dtd">
<svg version="1.1" id="Слой_1" xmlns="http://www.w3.org/2000/svg" xmlns:xlink="http://www.w3.org/1999/xlink" x="0px" y="0px"
	 viewBox="0 0 100 100" enable-background="new 0 0 100 100" xml:space="preserve">
<path fill="#52B4EA" d="M49.7,13.4c-19.2,0-34.8,14.4-34.8,32.2c0,10.1,5.1,19.2,13,25.1V83l11.8-6.5c3.2,0.9,6.5,1.3,10,1.3
	c19.2,0,34.8-14.4,34.8-32.2C84.5,27.9,69,13.4,49.7,13.4z"/>
<polygon fill="#050DA8" points="53.2,56.8 44.3,47.4 27,56.8 46.1,36.6 55.1,46.1 72.2,36.6 "/>
</svg>
