<?xml version="1.0" encoding="utf-8"?>
<!-- Generator: Adobe Illustrator 17.1.0, SVG Export Plug-In . SVG Version: 6.00 Build 0)  -->
<!DOCTYPE svg PUBLIC "-//W3C//DTD SVG 1.1//EN" "http://www.w3.org/Graphics/SVG/1.1/DTD/svg11.dtd">
<svg version="1.1" id="Слой_1" xmlns="http://www.w3.org/2000/svg" xmlns:xlink="http://www.w3.org/1999/xlink" x="0px" y="0px"
	 viewBox="0 0 100 100" enable-background="new 0 0 100 100" xml:space="preserve">
<path fill="#FFFFFF" d="M80.6,20.7c2.4-1,5,1.2,4.4,3.8l-11,52.4c-0.5,2.5-3.4,3.6-5.4,2.1L52.1,66.8l-8.4,8.6
	c-1.5,1.5-4,0.9-4.7-1.1l-6.1-19.3l-16.3-4.8c-2.1-0.6-2.3-3.6-0.2-4.4L80.6,20.7z M72.5,32.3c0.7-0.6-0.1-1.7-0.9-1.2L36.4,52.9
	c-0.6,0.4-0.9,1.1-0.7,1.8l4.8,21.1c0.1,0.3,0.6,0.3,0.6-0.1l1.1-16.1c0-0.4,0.2-0.8,0.5-1L72.5,32.3z"/>
<path fill="#9EC2E5" d="M71.6,31c0.8-0.5,1.6,0.6,0.9,1.2L42.7,58.7c-0.3,0.3-0.5,0.6-0.5,1l-1.1,16.1c0,0.3-0.5,0.4-0.6,0.1
	l-4.8-21.1c-0.2-0.7,0.1-1.5,0.7-1.8L71.6,31z"/>
<path fill="#E2E2E2" d="M40.7,76c-0.8-0.3-1.4-0.9-1.7-1.8l-6.1-19.3l-16.3-4.8c-2.1-0.6-2.3-3.6-0.2-4.4l64.2-25
	c1.6-0.6,3.2,0.1,4,1.3c-0.1-0.2-0.3-0.4-0.5-0.6L40.5,56.9v1.6l-0.2-0.2l0.2,9.8V76C40.6,76,40.6,76,40.7,76L40.7,76L40.7,76z"/>
<g>
	<path fill="#E2E2E2" d="M85.1,23.5c0,0.3,0,0.6-0.1,0.9l-11,52.4c-0.5,2.5-3.4,3.6-5.4,2.1L52.1,66.8l-11.6-8.3v-1.6l43.6-35.6
		c0.2,0.2,0.4,0.4,0.5,0.6c0,0,0.1,0.1,0.1,0.1c0,0,0.1,0.1,0.1,0.1c0,0,0,0.1,0.1,0.1c0,0.1,0,0.1,0.1,0.2c0,0,0,0.1,0.1,0.1
		c0.1,0.2,0.1,0.3,0.1,0.5C85.1,23.3,85.1,23.4,85.1,23.5z"/>
	<path fill="#E2E2E2" d="M52.1,66.8l-8.4,8.6c-0.1,0.1-0.1,0.1-0.2,0.2c-0.1,0.1-0.1,0.1-0.2,0.2c0,0,0,0,0,0
		c-0.2,0.1-0.3,0.2-0.5,0.3c-0.1,0-0.2,0.1-0.3,0.1c-0.4,0.1-0.7,0.1-1.1,0.1c-0.1,0-0.2,0-0.3,0c0,0,0,0,0,0c-0.1,0-0.2,0-0.3-0.1
		c0,0-0.1,0-0.1,0l-0.2-7.9v-9.6L52.1,66.8z"/>
</g>
<g>
	<path fill="#DADDE0" d="M43.4,75.6c-0.1,0.1-0.1,0.1-0.2,0.2v0C43.3,75.7,43.4,75.6,43.4,75.6z"/>
	<path fill="#DADDE0" d="M43.2,75.7L43.2,75.7C43.2,75.7,43.2,75.7,43.2,75.7C43.2,75.7,43.2,75.7,43.2,75.7z"/>
	<path fill="#DADDE0" d="M42.7,76c0.2-0.1,0.3-0.2,0.5-0.3C43,75.8,42.9,75.9,42.7,76z"/>
	<path fill="#DADDE0" d="M41.4,76.2c0.4,0,0.7,0,1.1-0.1c-0.3,0.1-0.5,0.1-0.8,0.1C41.6,76.2,41.5,76.2,41.4,76.2
		C41.4,76.2,41.4,76.2,41.4,76.2z"/>
</g>
<g>
	<path fill="#FFFFFF" d="M41.7,76.2c-0.1,0-0.2,0-0.2,0C41.5,76.2,41.6,76.2,41.7,76.2z"/>
	<path fill="#FFFFFF" d="M41.4,76.2C41.4,76.2,41.4,76.2,41.4,76.2c0,0-0.1,0-0.2,0C41.2,76.2,41.3,76.2,41.4,76.2z"/>
</g>
<g>
	<path fill="#DADDE0" d="M41.4,76.2c-0.1,0-0.1,0-0.2,0c0,0-0.1,0-0.1,0C41.2,76.2,41.3,76.2,41.4,76.2z"/>
	<path fill="#DADDE0" d="M40.8,76.1c0.1,0,0.2,0.1,0.3,0.1c0,0-0.1,0-0.1,0c0,0,0,0,0,0C40.9,76.1,40.8,76.1,40.8,76.1z"/>
</g>
<g>
	<path fill="#FFFFFF" d="M40.9,76.1c0,0,0.1,0,0.1,0C41,76.1,41,76.1,40.9,76.1z"/>
	<path fill="#FFFFFF" d="M40.8,76.1c0,0,0.1,0,0.1,0C40.8,76.1,40.8,76.1,40.8,76.1C40.7,76,40.8,76.1,40.8,76.1z"/>
</g>
<path fill="#DADDE0" d="M40.8,76.1C40.8,76.1,40.7,76,40.8,76.1C40.7,76,40.7,76,40.8,76.1L40.8,76.1C40.7,76,40.8,76.1,40.8,76.1z"
	/>
<path fill="#D1D1D1" d="M40.5,68.1l0.2,7.9c-0.1,0-0.1,0-0.2-0.1V68.1z"/>
<polygon fill="#DADDE0" points="40.5,58.5 40.5,68.1 40.3,58.3 "/>
<path fill="#ADBCC9" d="M72.5,32.3L42.7,58.7c-0.3,0.3-0.5,0.6-0.5,1l-1.1,16.1c0,0.3-0.5,0.4-0.6,0.1l-4.8-21.1
	c-0.2-0.7,0.1-1.5,0.7-1.8L71.6,31C72.4,30.5,73.3,31.7,72.5,32.3z"/>
</svg>
