<?xml version="1.0" encoding="utf-8"?>
<!-- Generator: Adobe Illustrator 17.1.0, SVG Export Plug-In . SVG Version: 6.00 Build 0)  -->
<!DOCTYPE svg PUBLIC "-//W3C//DTD SVG 1.1//EN" "http://www.w3.org/Graphics/SVG/1.1/DTD/svg11.dtd">
<svg version="1.1" id="Слой_1" xmlns="http://www.w3.org/2000/svg" xmlns:xlink="http://www.w3.org/1999/xlink" x="0px" y="0px"
	 viewBox="0 0 100 100" enable-background="new 0 0 100 100" xml:space="preserve">
<g>
	<path fill="#52B4EA" d="M57.4,10.2H41.9c-16.3,0-29.5,13.2-29.5,29.5v14c0,12.1,7.5,23,18.7,27.5v9.1c0,0.6,0.4,1.2,0.9,1.4
		c0.2,0.1,0.4,0.1,0.6,0.1c0.4,0,0.8-0.1,1-0.4l9-8.2h14.8c16.3,0,29.5-13.2,29.5-29.5v-14C86.9,23.4,73.7,10.2,57.4,10.2z"/>
	<path fill="#52B4EA" d="M83.8,53.7c0,14.6-11.9,26.4-26.4,26.4H42c-0.4,0-0.8,0.1-1,0.4l-6.9,6.2V80c0-0.7-0.4-1.2-1-1.5
		c-10.5-3.7-17.6-13.7-17.6-24.9v-14c0-14.6,11.9-26.4,26.4-26.4h15.6c14.6,0,26.4,11.9,26.4,26.4L83.8,53.7L83.8,53.7z"/>
	<path fill="#050DA8" d="M64.6,63.3c-1.4,2.2-4.3,2.8-6.6,1.3c-0.1-0.1-11.4-6-17.4-12c-5.6-5.7-9.3-12-9.8-12.9
		c-1.2-3.5-1-5.6,0.7-7.1l3.5-3.1l6.5,7.4c0.6,0.7,0.5,1.6-0.1,2.2l-1.9,1.7c-0.5,0.4-0.6,1-0.5,1.6C42.3,53,48.6,55,53.2,56.5
		l0.7,0.2c0.7,0.2,1.4,0,1.8-0.6l1.1-1.7c0.2-0.4,0.6-0.6,1-0.7c0.4-0.1,0.8,0,1.2,0.2l8.3,5.4L64.6,63.3z"/>
	<path fill="#050DA8" d="M53.2,35.4c-0.8-0.2-1.7,0.2-1.9,1.1c-0.2,0.8,0.2,1.7,1.1,1.9c2.3,0.7,4.2,2.5,4.8,4.8
		c0.2,0.7,0.8,1.1,1.5,1.1c0.1,0,0.3,0,0.4-0.1c0.8-0.2,1.3-1.1,1.1-1.9C59.2,39.1,56.5,36.4,53.2,35.4z"/>
	<path fill="#050DA8" d="M65,44.7c0.1,0,0.3,0,0.4-0.1c0.8-0.2,1.3-1.1,1.1-1.9c-1.8-6.5-7-11.7-13.5-13.5c-0.8-0.2-1.7,0.2-1.9,1.1
		c-0.2,0.8,0.2,1.7,1.1,1.9c5.5,1.6,9.8,5.9,11.4,11.4C63.7,44.3,64.3,44.7,65,44.7z"/>
	<path fill="#050DA8" d="M52.3,22c-0.8-0.2-1.7,0.2-1.9,1.1c-0.2,0.8,0.2,1.7,1.1,1.9c9.3,2.6,16.6,10,19.3,19.3
		c0.2,0.7,0.8,1.1,1.5,1.1c0.1,0,0.3,0,0.4-0.1c0.8-0.2,1.3-1.1,1.1-1.9C70.8,33.1,62.6,24.9,52.3,22z"/>
</g>
</svg>
