<?xml version="1.0" encoding="utf-8"?>
<!-- Generator: Adobe Illustrator 21.1.0, SVG Export Plug-In . SVG Version: 6.00 Build 0)  -->
<svg version="1.1" id="Слой_1" xmlns="http://www.w3.org/2000/svg" xmlns:xlink="http://www.w3.org/1999/xlink" x="0px" y="0px"
	 viewBox="0 0 1000 500" style="enable-background:new 0 0 1000 500;" xml:space="preserve">
<style type="text/css">
	.st0{fill:#F8F8F8;}
	.st1{fill:#F8F8F8;stroke:#52B4EA;stroke-width:0.75;stroke-miterlimit:10;}
	.st2{fill:none;stroke:#52B4EA;stroke-width:1.25;stroke-miterlimit:10;}
	.st3{fill:#F8F8F8;stroke:#52B4EA;stroke-width:1.25;stroke-miterlimit:10;}
	.st4{fill:none;stroke:#52B4EA;stroke-width:0.75;stroke-miterlimit:10;}
	.st5{fill:#F8F8F8;stroke:#050DA8;stroke-width:1.25;stroke-miterlimit:10;}
	.st6{fill:none;stroke:#050DA8;stroke-width:1.25;stroke-miterlimit:10;}
	.st7{fill:none;stroke:#050DA8;stroke-width:0.75;stroke-miterlimit:10;}
</style>
<title>Illyustratsii_длинные</title>
<g id="Слой_2">
	<rect x="-197.1" class="st0" width="1369.1" height="500"/>
</g>
<g id="Слой_1_1_">
	<ellipse class="st1" cx="489.4" cy="279.2" rx="15" ry="11"/>
	<rect x="588.2" y="298" class="st2" width="6" height="24.5"/>
	<polygon class="st2" points="578.2,331 604.2,331 594.2,322.4 588.2,322.4 	"/>
	<rect x="184.5" y="274.6" class="st3" width="12.1" height="198.4"/>
	<path class="st3" d="M212.8,353.1h-16.2l0,0v-72.6l0,0h15.2c3.9,0,7,3.1,7,7v59.7C218.7,350.5,216.1,353.1,212.8,353.1
		C212.8,353.1,212.8,353.1,212.8,353.1z"/>
	<path class="st3" d="M270.2,375.8v13l0,0h-73.6l0,0v-12c0-3.5,2.8-6.4,6.4-6.4h61.8C267.7,370.4,270.1,372.8,270.2,375.8z"/>
	<rect x="196.6" y="388.8" class="st3" width="73.6" height="10.1"/>
	<rect x="258" y="398.8" class="st3" width="12.1" height="74.2"/>
	<rect x="719.4" y="274.6" class="st3" width="12.1" height="198.4"/>
	<path class="st3" d="M704.2,280.6h15.1l0,0v72.6l0,0h-16.2c-3.3,0-5.9-2.6-5.9-5.9c0,0,0,0,0,0v-59.7
		C697.3,283.6,700.4,280.5,704.2,280.6L704.2,280.6z"/>
	<path class="st3" d="M719.4,376.7v12l0,0h-73.6l0,0v-13c0-3,2.4-5.4,5.4-5.4H713C716.5,370.4,719.4,373.2,719.4,376.7
		C719.4,376.7,719.4,376.7,719.4,376.7z"/>
	<rect x="645.8" y="388.8" class="st3" width="73.6" height="10.1"/>
	<rect x="645.8" y="398.8" class="st3" width="12.1" height="74.2"/>
	<path class="st3" d="M290,331h341.1c3.7,0,6.6,3,6.6,6.6v12.3c0,3.7-3,6.6-6.6,6.6H290c-3.7,0-6.6-3-6.6-6.6v-12.3
		C283.4,334,286.3,331,290,331z"/>
	<rect x="303.6" y="356.6" class="st3" width="19.2" height="116.4"/>
	<rect x="598.4" y="356.6" class="st3" width="19.2" height="116.4"/>
	<polygon class="st3" points="328.9,331 461.1,420.1 592.3,331.8 	"/>
	<circle class="st2" cx="233.4" cy="118.6" r="84.9"/>
	<circle class="st2" cx="233.4" cy="118.6" r="74.7"/>
	<path class="st2" d="M240.1,44.2c-2.2-0.2-4.5-0.3-6.7-0.3c-2.3,0-4.5,0.1-6.7,0.3v67.6H159c-0.2,2.2-0.3,4.5-0.3,6.7
		s0.1,4.5,0.3,6.7h67.6V193c2.2,0.2,4.5,0.3,6.7,0.3c2.3,0,4.5-0.1,6.7-0.3v-67.7h67.6c0.2-2.2,0.3-4.5,0.3-6.7s-0.1-4.5-0.3-6.7
		h-67.6V44.2z"/>
	<path class="st1" d="M389.3,194.6c2.9,4.5,9,5.8,13.5,2.8c4.5-2.9,5.8-9,2.8-13.5c-2.9-4.5-17.2-8.5-17.2-8.5
		S386.3,190.2,389.3,194.6z"/>
	<path class="st1" d="M408.9,198.7c-4.6,2.8-10.6,1.3-13.3-3.3c-2.6-4.4-1.4-10,2.7-12.9c4.5-2.9,19.2-0.9,19.2-0.9
		S413.4,195.8,408.9,198.7z"/>
	<path class="st1" d="M390.8,189c-1.5,5.2,1.5,10.5,6.6,12.1c5.2,1.5,10.5-1.5,12.1-6.6c0.1-0.5,0.2-0.9,0.3-1.4
		c1.1-5.3-6.1-18.2-6.1-18.2S391.9,183.7,390.8,189z"/>
	<path class="st3" d="M398.2,274.1c0-2.2-6.6-4.4-6.6-6.6v-4.4h33.8v4.4c0,2.2-6.6,4.4-6.6,6.6c0,2.2,8.8,11,8.8,17.6
		c0,6.6-7.2,39.6-7.2,39.6h-23.9c0,0-7.2-33-7.2-39.6C389.4,285.1,398.2,276.2,398.2,274.1z"/>
	<path class="st2" d="M409.2,263c0-24.6,17-44.5,38.1-44.5"/>
	<path class="st1" d="M455.4,210.3c-5.1,1.7-7.9,7.2-6.2,12.3c1.7,5.1,7.2,7.9,12.3,6.2c0.2-0.1,0.3-0.1,0.5-0.2
		c5-1.8,12.3-14.7,12.3-14.7S460.4,208.5,455.4,210.3z"/>
	<path class="st1" d="M446.8,228.5c-1.9-5,0.5-10.6,5.5-12.6c5-1.9,10.6,0.5,12.6,5.5c0.1,0.2,0.1,0.3,0.2,0.5
		c1.8,5-3.6,18.8-3.6,18.8S448.6,233.5,446.8,228.5z"/>
	<path class="st1" d="M460.5,213.1c-4.9-2.3-10.7-0.2-12.9,4.7c-2.3,4.9-0.2,10.7,4.7,12.9c4.9,2.3,19.1-1.7,19.1-1.7
		S465.4,215.3,460.5,213.1z"/>
	<path class="st2" d="M429.7,198.6c-22.4,15.1-25.5,45.7-21.9,64.1"/>
	<path class="st1" d="M430.3,187.6c-2.5,4.7-0.7,10.6,4,13.1c4.7,2.5,10.6,0.7,13.1-4c0.1-0.2,0.2-0.3,0.2-0.5
		c2.4-4.8-1.3-19.1-1.3-19.1S432.7,182.7,430.3,187.6z"/>
	<path class="st1" d="M436.7,206.6c-4.9-2.3-7-8.1-4.7-12.9c2.3-4.9,8.1-7,12.9-4.7c0.2,0.1,0.3,0.2,0.5,0.2
		c4.8,2.4,10.5,16.1,10.5,16.1S441.5,209,436.7,206.6z"/>
	<path class="st1" d="M436,186c-5.1,1.6-8,7-6.5,12.1c1.6,5.1,7,8,12.1,6.5c0.2-0.1,0.3-0.1,0.5-0.2c5.1-1.7,12.6-14.5,12.6-14.5
		S441.1,184.3,436,186z"/>
	<path class="st3" d="M398.2,200.2c-4.4,21.2-1.8,43.2,7.5,62.8"/>
	<rect x="614.4" y="196.7" class="st3" width="263.2" height="18.4"/>
	<circle class="st3" cx="806.5" cy="138.6" r="44.7"/>
	<circle class="st1" cx="806.5" cy="138.6" r="25.8"/>
	<path class="st4" d="M806.5,175.3c20.3,0,36.7-16.4,36.7-36.7"/>
	<polyline class="st2" points="821.6,180.3 839.2,196.7 848.2,196.7 839,170 	"/>
	<polyline class="st2" points="791.4,180.3 773.8,196.7 764.8,196.7 774,170 	"/>
	<line class="st4" x1="395.3" y1="348.1" x2="452.8" y2="387"/>
	<path class="st3" d="M580,259h23.4l0,0v36.4c0,4-3.2,7.2-7.2,7.2h-9c-4,0-7.2-3.2-7.2-7.2L580,259L580,259L580,259z"/>
	<rect x="315.8" y="298" class="st2" width="6" height="24.5"/>
	<polygon class="st2" points="305.8,331 331.9,331 321.8,322.4 315.8,322.4 	"/>
	<path class="st3" d="M307.7,259h23.4l0,0v36.4c0,4-3.2,7.2-7.2,7.2l0,0h-9c-4,0-7.2-3.2-7.2-7.2c0,0,0,0,0,0L307.7,259L307.7,259
		L307.7,259z"/>
	<path class="st5" d="M499.7,165.3c0-0.1-0.1-0.2-0.2-0.3v-42.3h-5.9v39.5c-1.5,0-3,0.3-4.4,0.9c-4.5,1.8-7.2,5.9-6,9
		s6,4.1,10.5,2.3S500.9,168.4,499.7,165.3z"/>
	<path class="st5" d="M557.3,74.8c-1.9-7.9-11.3-9.2-15.3-9.3l0,0h-5.9v39.4c-1.5,0-3,0.3-4.4,0.9c-4.5,1.9-7.2,5.9-5.9,9
		s6,4.1,10.5,2.3c4.5-1.9,7.2-5.9,6-9c0-0.1-0.1-0.2-0.2-0.3V70.6c0.3,0.2,0.6,0.3,1,0.3c11.2,1.6,13.8,16.9,13.8,16.9
		S558.7,80.6,557.3,74.8z"/>
	<path class="st5" d="M595.8,142.1c0-0.1-0.1-0.2-0.2-0.3V99.5h-5.9v39.5c-1.5,0-3,0.3-4.4,0.9c-4.5,1.8-7.2,5.9-6,9
		c1.3,3.1,6,4.1,10.5,2.3C594.4,149.2,597.1,145.2,595.8,142.1z"/>
	<path class="st6" d="M647.1,119.2h48.6c5,0,9.1,4.1,9.1,9.1v59.3c0,5-4.1,9.1-9.1,9.1h-48.6c-5,0-9.1-4.1-9.1-9.1v-59.3
		C638,123.3,642.1,119.2,647.1,119.2z"/>
	<line class="st7" x1="637.7" y1="131.9" x2="704.8" y2="131.9"/>
	<line class="st7" x1="637.7" y1="145.7" x2="704.8" y2="145.7"/>
	<line class="st7" x1="637.7" y1="159.5" x2="704.8" y2="159.5"/>
	<line class="st7" x1="637.7" y1="173.3" x2="704.8" y2="173.3"/>
	<line class="st7" x1="637.7" y1="187.2" x2="704.8" y2="187.2"/>
	<path class="st5" d="M654.7,119.2h33.4l0,0v57.2c0,3.2-2.6,5.8-5.8,5.8l0,0h-21.8c-3.2,0-5.8-2.6-5.8-5.8c0,0,0,0,0,0V119.2
		L654.7,119.2z"/>
	<line class="st4" x1="264.1" y1="83.5" x2="280.4" y2="99.9"/>
	<line class="st4" x1="233.4" y1="70.6" x2="296.2" y2="133.4"/>
	<line class="st4" x1="203.4" y1="136" x2="232.5" y2="165.2"/>
	<line class="st2" x1="-195.1" y1="474" x2="1174.1" y2="474"/>
	<ellipse class="st1" cx="474" cy="296.9" rx="15" ry="11"/>
	<ellipse class="st1" cx="513.4" cy="296.9" rx="15" ry="11"/>
	<ellipse class="st1" cx="498.4" cy="285.9" rx="15" ry="11"/>
	<ellipse class="st1" cx="480.3" cy="285.9" rx="15" ry="11"/>
	<ellipse class="st1" cx="496.4" cy="296.9" rx="15" ry="11"/>
	<path class="st3" d="M534,304c0-2.8-19.8-5-44.2-5s-44.2,2.2-44.2,5c0,0.9,2.3,1.8,6.2,2.6l10.3,24.7h55.5l10.3-24.7
		C531.8,305.8,534,304.9,534,304z"/>
	<line class="st4" x1="516.9" y1="310.2" x2="481" y2="310.2"/>
	<path class="st7" d="M557.5,185.4c-1.2-4.9-7-5.7-9.5-5.8h-3.7v24.5c-0.9,0-1.9,0.2-2.7,0.6c-2.8,1.1-4.5,3.6-3.7,5.6
		c0.8,2,3.7,2.6,6.5,1.4s4.5-3.6,3.7-5.6c0-0.1-0.1-0.1-0.1-0.2v-23.1c0.2,0.1,0.4,0.2,0.6,0.2c7,1,8.5,10.5,8.5,10.5
		C557.9,190.8,558,188.1,557.5,185.4z"/>
	<path class="st7" d="M481.1,93c-1.2-4.9-7-5.7-9.5-5.8h-3.7v24.5c-0.9,0-1.9,0.2-2.7,0.6c-2.8,1.1-4.5,3.6-3.7,5.6
		c0.8,2,3.7,2.6,6.5,1.4c2.8-1.2,4.5-3.6,3.7-5.6c0-0.1-0.1-0.1-0.1-0.2v-23c0.2,0.1,0.4,0.2,0.6,0.2c7,1,8.5,10.5,8.5,10.5
		C481.4,98.5,481.5,95.7,481.1,93z"/>
</g>
</svg>
