<?xml version="1.0" encoding="utf-8"?>
<!-- Generator: Adobe Illustrator 21.1.0, SVG Export Plug-In . SVG Version: 6.00 Build 0)  -->
<svg version="1.1" id="Слой_1" xmlns="http://www.w3.org/2000/svg" xmlns:xlink="http://www.w3.org/1999/xlink" x="0px" y="0px"
	 viewBox="0 0 1000 500" style="enable-background:new 0 0 1000 500;" xml:space="preserve">
<style type="text/css">
	.st0{fill:#F8F8F8;}
	.st1{fill:none;stroke:#52B4EA;stroke-width:1.25;stroke-miterlimit:10;}
	.st2{fill:#F8F8F8;stroke:#52B4EA;stroke-width:1.25;stroke-miterlimit:10;}
	.st3{fill:none;stroke:#52B4EA;stroke-width:0.75;stroke-linecap:round;stroke-linejoin:round;}
	.st4{fill:#F8F8F8;stroke:#050DA8;stroke-width:0.75;stroke-linecap:round;stroke-linejoin:round;}
	.st5{fill:#F8F8F8;stroke:#050DA8;stroke-width:1.25;stroke-linecap:round;stroke-linejoin:round;}
	.st6{fill:none;stroke:#050DA8;stroke-width:0.75;stroke-linecap:round;stroke-linejoin:round;}
</style>
<title>Illyustratsii_длинные</title>
<title>Illyustratsii_длинные</title>
<title>Illyustratsii_длинные</title>
<g id="Слой_2">
	<rect x="-212.6" y="-18.9" class="st0" width="1425.1" height="520.4"/>
</g>
<g id="Слой_1_1_">
	<line class="st1" x1="-212.6" y1="474.5" x2="1212.6" y2="474.5"/>
	<rect x="648.8" y="32.1" class="st2" width="144.6" height="173.8"/>
	<rect x="666.2" y="53" class="st3" width="109.8" height="131.9"/>
	<rect x="674" y="174.6" class="st2" width="18.5" height="31.3"/>
	<path class="st2" d="M683.3,142.6h8.7c1.2,0,2.2,1,2.2,2.2v16.3c0,1.2-1,2.2-2.2,2.2h-8.7l0,0V142.6L683.3,142.6z"/>
	<polygon class="st2" points="658,189.6 643.2,189.6 640.1,142.6 661.1,142.6 	"/>
	<rect x="647.1" y="190.3" class="st2" width="7" height="15.7"/>
	<rect x="627" y="205.9" class="st2" width="188.2" height="7.1"/>
	<rect x="678.2" y="139.8" class="st2" width="5.1" height="34.8"/>
	<line class="st3" x1="750.5" y1="76.4" x2="705.3" y2="121.6"/>
	<line class="st3" x1="758.2" y1="97.8" x2="733.4" y2="122.7"/>
	<rect x="163.7" y="180.9" class="st3" width="99.5" height="10.4"/>
	<rect x="163.7" y="153.9" class="st3" width="99.5" height="10.4"/>
	<rect x="163.7" y="126.9" class="st3" width="99.5" height="10.4"/>
	<rect x="163.7" y="99.9" class="st3" width="99.5" height="10.4"/>
	<polyline class="st2" points="180.7,279.3 180.7,154 244.6,154 244.6,279.3 	"/>
	<rect x="157.3" y="83.4" class="st2" width="6.4" height="124.5"/>
	<circle class="st2" cx="160.5" cy="83.4" r="6.2"/>
	<circle class="st2" cx="160.5" cy="207.8" r="6.2"/>
	<rect x="260" y="83.4" class="st2" width="6.4" height="124.5"/>
	<circle class="st2" cx="263.2" cy="83.4" r="6.2"/>
	<circle class="st2" cx="263.2" cy="207.8" r="6.2"/>
	<line class="st3" x1="190.1" y1="238" x2="190.1" y2="278.5"/>
	<line class="st3" x1="201" y1="238" x2="201" y2="278.5"/>
	<line class="st3" x1="211.9" y1="238" x2="211.9" y2="278.5"/>
	<line class="st3" x1="233.7" y1="238" x2="233.7" y2="278.5"/>
	<line class="st3" x1="222.8" y1="238" x2="222.8" y2="278.5"/>
	<path class="st2" d="M491.5,340.6H162.4c0,0-3.2,99.6,63.8,99.6h201.6C494.7,440.3,491.5,340.6,491.5,340.6z"/>
	<path class="st2" d="M428.9,440.3l4,20.2c0,0,7.9,0.9,10,5.1c1.9,3.8-0.3,8.9-0.3,8.9h-18.5l-23.8-34.2H428.9z"/>
	<path class="st2" d="M225.1,440.3l-4,20.2c0,0-7.9,0.9-10,5.1c-1.9,3.8,0.3,8.9,0.3,8.9H230l23.7-34.2L225.1,440.3z"/>
	<path class="st2" d="M157.4,323.5h339c3.2,0,5.8,2.6,5.8,5.8v11.2l0,0H151.6l0,0v-11.3C151.7,326.1,154.3,323.5,157.4,323.5z"/>
	<path class="st2" d="M491.5,340.6H162.4c0,0-3.2,99.6,63.8,99.6h201.6C494.7,440.3,491.5,340.6,491.5,340.6z"/>
	<path class="st3" d="M472.7,376.1c-2.9,14.3-8.4,30.3-17.8,40c-7,7.6-16.8,11.8-27.1,11.7H319.2"/>
	<line class="st3" x1="194.8" y1="356.2" x2="313" y2="356.2"/>
	<path class="st2" d="M803.3,262.8H637.3c-4.6,0-8.3,4.8-8.3,9.3c0,4.6,3.7,9.3,8.3,9.3h9.4c3.8,24.9,41.4,47.6,78.8,48.7v108.5
		c-12.9,5.7-21.3,18.5-21.4,32.6h88.3c0-14.4-10.8-27.4-23.3-32.9V323.3c24.9-9.9,43.6-29.1,43.6-51.1v-2.9
		C812.6,264.7,807.9,262.8,803.3,262.8z"/>
	<line class="st1" x1="786.1" y1="281.5" x2="664.7" y2="281.5"/>
	<line class="st1" x1="730.1" y1="440.3" x2="761.2" y2="440.3"/>
	<circle class="st2" cx="530.8" cy="94.9" r="64.6"/>
	<circle class="st2" cx="530.8" cy="94.9" r="51.4"/>
	<rect x="525.8" y="43.7" class="st2" width="11" height="102.5"/>
	<rect x="480" y="89.5" class="st2" width="102.5" height="11"/>
	<line class="st3" x1="574.7" y1="83.2" x2="543.3" y2="114.6"/>
	<line class="st3" x1="561.4" y1="106.8" x2="544" y2="124.1"/>
	<circle class="st2" cx="335.8" cy="64.2" r="6"/>
	<rect x="338.2" y="254" class="st2" width="75" height="8.8"/>
	<circle class="st2" cx="338.1" cy="257.3" r="13.7"/>
	<circle class="st3" cx="338.1" cy="257.3" r="8.3"/>
	<circle class="st2" cx="410.9" cy="257.3" r="13.7"/>
	<circle class="st3" cx="410.9" cy="257.3" r="8.3"/>
	<path class="st2" d="M371.9,232.4h7.7c1.6,0,2.9,1.3,2.9,2.9v45.5l0,0H369l0,0v-45.5C369,233.7,370.3,232.4,371.9,232.4z"/>
	<path class="st2" d="M365.1,280.8h21.2c1.2,0,2.2,1,2.2,2.2v9c0,1.2-1,2.2-2.2,2.2h-21.2c-1.2,0-2.2-1-2.2-2.2v-9
		C362.9,281.8,363.9,280.8,365.1,280.8z"/>
	<path class="st2" d="M318.1,67.9h33.3c4.8,0,8.7,3.9,8.7,8.7l0,0v15.5l0,0h-50.8l0,0V76.7C309.4,71.8,313.3,67.9,318.1,67.9
		L318.1,67.9z"/>
	<rect x="303.9" y="92.2" class="st2" width="61.9" height="7.8"/>
	<path class="st1" d="M335.9,59V24.2c0-4,3.3-7.3,7.3-7.3H410c4,0,7.3,3.3,7.3,7.3V131c0,4-3.3,7.3-7.3,7.3h-26.2
		c-4,0-7.3,3.3-7.3,7.3v87.6"/>
	<path class="st4" d="M653.2,434.8c0,16.1-25.4,18.3-52.9,18.3"/>
	<path class="st5" d="M646.2,434.8c0,7.2-19.2,9.7-42.9,9.7c-23.7,0-42.9-1.1-42.9-9.7c0-14.8,19.2-26.7,42.9-26.7
		C627,408,646.2,420,646.2,434.8z"/>
	<path class="st4" d="M603.4,417.4c13.3,0,24.3,4.4,29.8,9.9"/>
	<line class="st6" x1="554.8" y1="390.4" x2="566.7" y2="405.5"/>
	<line class="st6" x1="536.5" y1="415.4" x2="552.7" y2="419.5"/>
	<line class="st6" x1="581.7" y1="382.7" x2="583.8" y2="398"/>
	<path class="st5" d="M792.7,244h-26.8v-35.8c0-17.7-14.3-30.1-31.9-30.1c-17,0-30.8,13.1-31.9,31.8H701c-1.5,0-3.6-2.9-3.6-1.5v6.6
		c0,1.5,2.2,1,3.6,1h15.7c1.5,0,2.5,0.4,2.5-1v-6.6c0-1.5-1,1.5-2.5,1.5H716c1-15.6,9.3-18,18.7-18c10,0,18.8,6.3,18.8,16.3V244
		h-30.9c-3.6,0-6.5,2.9-6.5,6.4c0,0.1,0,0.2,0,0.3l0,0c0,3.8,2.7,5.7,6.5,5.7h70.1c3.8,0,7.4-2,7.4-5.7l0,0
		C800.1,246.9,796.4,244,792.7,244z"/>
	<path class="st5" d="M742.9,234.6h-15.3c-2.3,0-5.3-1.1-5.3,1.1l0,0c0,2.3,3,5.1,5.3,5.1h-2.2v3.1h18.6v-3.1h-1.2
		c2.3,0,1.2-2.8,1.2-5.1l0,0C744.1,233.5,745.2,234.6,742.9,234.6z"/>
	<path class="st5" d="M792.3,234.6h-15.3c-2.3,0-1.7-1.1-1.7,1.1l0,0c0,2.3-0.6,5.1,1.7,5.1h1.5v3.1h12.4v-3.1h1.5
		c2.3,0,4.7-2.8,4.7-5.1l0,0C797,233.5,794.6,234.6,792.3,234.6z"/>
	<line class="st6" x1="694.3" y1="338.9" x2="694.3" y2="432.3"/>
	<line class="st6" x1="719.2" y1="307.8" x2="719.2" y2="354.5"/>
	<polygon class="st5" points="712.8,466.6 712.8,222.2 703.8,222.2 703.8,466.6 266.3,474.3 871.7,474.3 	"/>
</g>
</svg>
