<?xml version="1.0" encoding="utf-8"?>
<!-- Generator: Adobe Illustrator 21.1.0, SVG Export Plug-In . SVG Version: 6.00 Build 0)  -->
<svg version="1.1" id="Слой_1" xmlns="http://www.w3.org/2000/svg" xmlns:xlink="http://www.w3.org/1999/xlink" x="0px" y="0px"
	 viewBox="0 0 1000 500" style="enable-background:new 0 0 1000 500;" xml:space="preserve">
<style type="text/css">
	.st0{fill:#F8F8F8;}
	.st1{fill:none;stroke:#52B4EA;stroke-width:1.25;stroke-miterlimit:10;}
	.st2{fill:none;stroke:#52B4EA;stroke-width:1.25;stroke-linecap:round;stroke-linejoin:round;}
	.st3{fill:none;stroke:#52B4EA;stroke-linecap:round;stroke-linejoin:round;}
	.st4{fill:#F8F8F8;stroke:#52B4EA;stroke-width:1.25;stroke-miterlimit:10;}
	.st5{fill:none;stroke:#52B4EA;stroke-width:0.75;stroke-miterlimit:10;}
	.st6{fill:#F8F8F8;stroke:#050DA8;stroke-width:1.25;stroke-miterlimit:10;}
	.st7{fill:none;stroke:#52B4EA;stroke-miterlimit:10;}
	.st8{fill:#F8F8F8;stroke:#52B4EA;stroke-width:0.98;stroke-miterlimit:10;}
	.st9{fill:#F8F8F8;stroke:#52B4EA;stroke-width:0.75;stroke-miterlimit:10;}
	.st10{fill:none;stroke:#050DA8;stroke-width:0.75;stroke-miterlimit:10;}
	.st11{fill:#F8F8F8;stroke:#050DA8;stroke-width:1.25;stroke-linecap:round;stroke-linejoin:round;}
	.st12{fill:none;stroke:#050DA8;stroke-width:1.25;stroke-linecap:round;stroke-linejoin:round;}
	.st13{fill:none;stroke:#050DA8;stroke-width:0.75;stroke-linecap:round;stroke-linejoin:round;}
	.st14{fill:#F8F8F8;stroke:#050DA8;stroke-linecap:round;stroke-linejoin:round;}
	.st15{fill:none;stroke:#050DA8;stroke-linecap:round;stroke-linejoin:round;}
</style>
<title>Illyustratsii_длинные</title>
<g id="Слой_2">
	<rect x="-140.8" y="0.2" class="st0" width="1370.4" height="500.5"/>
</g>
<g id="Слой_1_1_">
	<line class="st1" x1="-139.4" y1="474.7" x2="1231.1" y2="474.7"/>
	<path class="st2" d="M461.7,127.6v140.5H278.5V127.6H461.7 M446.4,142.4v111H293.8v-111H446.4"/>
	<circle class="st3" cx="392.2" cy="167.6" r="10.1"/>
	<circle class="st3" cx="415.9" cy="201.5" r="14.8"/>
	<polygon class="st3" points="393,188.8 374.7,242.7 306.1,201.3 	"/>
	<rect x="517.9" y="392.4" class="st4" width="106.2" height="58.3"/>
	<rect x="517.9" y="392.4" class="st5" width="106.2" height="26.7"/>
	<path class="st5" d="M554.3,402.3h33.5c1.1,0,1.9,0.9,1.9,1.9v3.4c0,1.1-0.9,1.9-1.9,1.9h-33.5c-1.1,0-1.9-0.9-1.9-1.9v-3.4
		C552.3,403.2,553.2,402.3,554.3,402.3z"/>
	<rect x="517.9" y="450.7" class="st4" width="16.7" height="23.1"/>
	<rect x="607.4" y="450.7" class="st4" width="16.7" height="23.1"/>
	<path class="st4" d="M574.6,377v-42.5h-6V377c0,9.2-19.4,9.7-19.4,9.7v5.2H594v-5.2C594,386.7,574.6,386.2,574.6,377z"/>
	<circle class="st6" cx="571.6" cy="304.8" r="28"/>
	<path class="st4" d="M594.5,312.5h-45.8c-5,0-8.1,3.7-5.8,6.7l9.3,12.1c1.5,1.6,3.6,2.5,5.8,2.4h27.3c2.2,0.1,4.3-0.8,5.8-2.4
		l9.3-12.1C602.6,316.1,599.4,312.5,594.5,312.5z"/>
	<line class="st7" x1="576.9" y1="321.6" x2="598.3" y2="321.6"/>
	<circle class="st6" cx="189.1" cy="200.3" r="32.3"/>
	<rect x="184.9" y="232.5" class="st1" width="7.6" height="227.8"/>
	<polyline class="st8" points="343.4,451.8 329.6,474.5 319.1,474.5 324.7,448.1 	"/>
	<polyline class="st8" points="456.1,451.8 469.9,474.5 480.4,474.5 474.8,448.1 	"/>
	<path class="st4" d="M307.6,408.9c0,0-22.2-36.3-27.5-47.1c-5.3-10.9-8.7-9.4-12.2-9.4c-3.4,0-11.2-0.7-11.2,7.8
		c0,11.4,26.6,91.4,64,91.4h157.6c37.3,0,64-80,64-91.4c0-8.5-7.8-7.8-11.2-7.8c-3.4,0-6.9-1.4-12.2,9.4
		c-5.3,10.8-27.6,47.1-27.6,47.1"/>
	<path class="st4" d="M278.5,360c0,0,18.4-56.9,120.9-56.9h-0.2c102.5,0,120.9,56.9,120.9,56.9"/>
	<circle class="st9" cx="363.2" cy="350.3" r="4.8"/>
	<circle class="st9" cx="435.5" cy="350.3" r="4.8"/>
	<circle class="st9" cx="399.4" cy="339.7" r="4.8"/>
	<path class="st4" d="M314.4,397h75.3c5.3,0,9.7,4.3,9.7,9.7l0,0v24.9c0,2.8-2.3,5.1-5.1,5.1l0,0h-84.4c-2.8,0-5.1-2.3-5.1-5.1l0,0
		v-24.9C304.7,401.3,309,397,314.4,397L314.4,397z"/>
	<line class="st5" x1="371.7" y1="397" x2="376.6" y2="384"/>
	<line class="st5" x1="349.3" y1="397" x2="344.4" y2="384"/>
	<line class="st5" x1="324.9" y1="397" x2="311.1" y2="375.6"/>
	<path class="st4" d="M409,397h75.3c5.3,0,9.7,4.3,9.7,9.7l0,0v24.9c0,2.8-2.3,5.1-5.1,5.1l0,0h-84.4c-2.8,0-5.1-2.3-5.1-5.1l0,0
		v-24.9C399.4,401.3,403.7,397,409,397L409,397z"/>
	<line class="st5" x1="449.4" y1="397" x2="454.3" y2="384"/>
	<line class="st5" x1="473.8" y1="397" x2="487.6" y2="375.6"/>
	<line class="st5" x1="427" y1="397" x2="422.2" y2="384"/>
	<polygon class="st1" points="630.7,38.2 615.9,38.2 597.8,26.5 648.7,26.5 	"/>
	<line class="st1" x1="621.8" y1="38.1" x2="621.8" y2="97.4"/>
	<line class="st1" x1="624.8" y1="38.1" x2="624.8" y2="97.4"/>
	<path class="st1" d="M685.1,152.9c0,19.6-13.4,35.5-30,35.5c-16.6,0-30-15.9-30-35.5"/>
	<path class="st1" d="M622.2,152.9c0,19.6-13.6,35.5-30.4,35.5c-16.8,0-30.4-15.9-30.4-35.5"/>
	<path class="st1" d="M688.6,152.9c0,21.6-14.6,39.2-32.7,39.2s-32.7-17.5-32.7-39.2"/>
	<path class="st1" d="M623.3,152.9c0,21.6-14.6,39.2-32.7,39.2c-18,0-32.7-17.5-32.7-39.2"/>
	<polygon class="st6" points="585.6,152.9 534.3,152.9 546.7,102.1 573.3,102.1 	"/>
	<line class="st10" x1="572.6" y1="126.8" x2="576.6" y2="152.9"/>
	<line class="st10" x1="567.2" y1="136.2" x2="568.5" y2="152.9"/>
	<polygon class="st6" points="648.9,152.9 597.6,152.9 609.9,102.1 636.6,102.1 	"/>
	<line class="st10" x1="635.9" y1="126.8" x2="639.9" y2="152.9"/>
	<line class="st10" x1="630.5" y1="136.2" x2="631.8" y2="152.9"/>
	<polygon class="st6" points="712.2,152.9 660.9,152.9 673.2,102.1 699.9,102.1 	"/>
	<line class="st10" x1="699.2" y1="126.8" x2="703.2" y2="152.9"/>
	<line class="st10" x1="693.7" y1="136.2" x2="695.1" y2="152.9"/>
	<path class="st4" d="M217.4,200.3H160c-4.5,0-8.2,3.7-8.2,8.2c0,1.3,0.3,2.7,1,3.9l11.6,21.8c1.4,2.7,4.2,4.4,7.3,4.4h34.2
		c3,0,5.8-1.7,7.3-4.4l11.6-21.8c2.1-4,0.6-9-3.4-11.1C220.1,200.7,218.8,200.3,217.4,200.3z"/>
	<line class="st7" x1="185.8" y1="212.3" x2="209.6" y2="212.3"/>
	<path class="st11" d="M774.7,354.4c-8.5,6.7-28.4,41.2-26.7,51.2c1.7,10,13.6,64.4,13.6,64.4l-44.5,2.8c0,0-2.1-6.8,8.3-10.8
		s1.8-42.5-2.9-58.6c-4.7-16.1,14.9-43.7,27.3-71.1"/>
	<path class="st11" d="M762.8,311l48.4,20.2c0,0,4,16.2,3.2,21.1c-1,6.2-5.9,9.6-9.9,20c-4,10.4-10.7,24.6-4.3,32.2
		c6.3,7.6,40.1,43,40.1,43l-36.9,26.6c0,0-5.1-4.7,1.9-13.8c7-9.1-16.3-32.7-28.2-43.9c-11.9-11.2-8-24.2-1.2-41.9
		c6.8-17.7-2.4-14.6-9.5-20.1"/>
	<path class="st11" d="M747.4,253.1c-11.2,11.2-16.5,43-23.8,40.4c-4.3-1.6-16.4-20.7-16.4-20.7l-16,15.4c0,0,19.2,30.6,38,30.6
		c10.7,0,26.9-42,26.9-42"/>
	<path class="st12" d="M705.7,274.2c0,0-1.1-12.5-4.6-13.5c-3.5-1-9.6-0.4-9.6-0.4"/>
	<path class="st11" d="M752.6,200.8c0,0-1.2,15-0.9,25.5c0.3,10.4,3,13.9,11.9,14.3c8.9,0.4,15.8-1.1,16.2-10"/>
	<path class="st11" d="M764,241.4v5.6c-3.8,0.2-7.5,0.8-11.1,1.8c-9.6,2.9-9.7,19.6-9.3,31.4c0.3,11.5,1.3,58.8,1.3,58.8
		s41.8,13.7,54,10.4s13-5.5,13-5.5l-7.6-79"/>
	<line class="st12" x1="769.2" y1="216.9" x2="777.6" y2="214.1"/>
	<path class="st11" d="M836.5,329.3c0,0,1,4.5,2.2,9.6c1.1,5.1,2.2,14.4,4.6,12.8c2.4-1.6,3.1-11.6,3.1-11.6s8.1,12.3,10.7,12.2
		s4.1-1.1,3.3-3.7c-0.5-1.8-5.9-14.5-5.9-14.5"/>
	<path class="st11" d="M852.8,321.2c0,0,4.2,6.6,6.3,10.7s0.3,13.7,0.3,13.7"/>
	<line class="st12" x1="751.9" y1="212.5" x2="760.1" y2="216"/>
	<path class="st11" d="M788,216c0,0,4.2-1.1,3.8,3.9c-0.3,5-5.8,5.8-5.8,5.8l-1.6,20.1l8.9,0.4c0,0,24.6,2.9,36,24
		s24.6,49.6,24.6,49.6l-17.4,9.6l-21.4-43c-7-14.1-15.8-6.9-15.8-6.9"/>
	<line class="st13" x1="814.4" y1="446.8" x2="829.7" y2="437.1"/>
	<line class="st12" x1="790.7" y1="208" x2="790.1" y2="216"/>
	<path class="st12" d="M773.4,228.4c-0.6,2.5-5.4,3.5-10.8,2.2"/>
	<line class="st13" x1="669.5" y1="214.1" x2="676.1" y2="231.4"/>
	<line class="st13" x1="649.6" y1="230.4" x2="665.9" y2="237.5"/>
	<path class="st11" d="M787.3,191.4c-2.5-10.8-29.9-11.5-36.3,5.4c-2.6,6.9-8.6,1.9-8.6,1.9c0.4,11.7,12.8,20.1,32.7,6.4
		c9-6.2,10.4-5.8,9.8-2.5s-1.4,15.2-1.4,15.2s11.3-5.1,12-14.7C796.3,191.4,787.3,191.4,787.3,191.4z"/>
	<polygon class="st14" points="757.6,247.9 756.3,267.1 762.5,257.4 770.1,253.8 764.3,244.4 	"/>
	<polygon class="st14" points="784.5,241.6 770.8,253.6 779.1,256.7 778.6,269.7 796.9,246.1 	"/>
	<path class="st14" d="M675.3,243.8l14.2-5.5c2.1-0.8,4.4,0.2,5.2,2.3l10.6,27.5c0.8,2.1-0.2,4.4-2.3,5.2l-14.2,5.5
		c-2.1,0.8-4.4-0.2-5.2-2.3L672.9,249C672.1,246.9,673.2,244.6,675.3,243.8z"/>
	<path class="st11" d="M692.5,286c0,0-10.2-5-13.9-9.9c-3.9-5.3,0.7-14,7.2-18.5c2.8-2,9.8,2.1,11,7.7c1.2,5.6-5.2,14.1-5.2,14.1"/>
	<line class="st15" x1="189.3" y1="142.2" x2="189.3" y2="156.4"/>
	<line class="st13" x1="168" y1="146.9" x2="178.1" y2="157"/>
	<line class="st13" x1="208.9" y1="146.9" x2="198.9" y2="157"/>
	<line class="st15" x1="570.9" y1="251.5" x2="570.9" y2="265.8"/>
	<line class="st13" x1="549.6" y1="256.3" x2="559.6" y2="266.3"/>
	<line class="st13" x1="590.5" y1="256.3" x2="580.5" y2="266.3"/>
	<line class="st13" x1="503" y1="110.2" x2="517.2" y2="115.4"/>
	<line class="st13" x1="499.9" y1="133.3" x2="513.7" y2="126.9"/>
	<line class="st13" x1="514.9" y1="92.4" x2="521.2" y2="106.1"/>
	<line class="st13" x1="735.5" y1="110.2" x2="721.3" y2="115.4"/>
	<line class="st13" x1="738.6" y1="133.3" x2="724.8" y2="126.9"/>
	<line class="st13" x1="723.7" y1="92.4" x2="717.2" y2="106.1"/>
	<line class="st13" x1="765.8" y1="275.3" x2="760.4" y2="342.1"/>
	<rect x="162.4" y="460.3" class="st4" width="52.5" height="14.3"/>
</g>
</svg>
