<?xml version="1.0" encoding="utf-8"?>
<!-- Generator: Adobe Illustrator 21.1.0, SVG Export Plug-In . SVG Version: 6.00 Build 0)  -->
<svg version="1.1" id="Слой_1" xmlns="http://www.w3.org/2000/svg" xmlns:xlink="http://www.w3.org/1999/xlink" x="0px" y="0px"
	 viewBox="0 0 1000 500" style="enable-background:new 0 0 1000 500;" xml:space="preserve">
<style type="text/css">
	.st0{fill:#F7F7F7;stroke:#050DA7;stroke-width:1.25;stroke-linecap:round;stroke-linejoin:round;stroke-miterlimit:10;}
	.st1{fill:none;stroke:#52B3E9;stroke-width:1.25;stroke-linecap:round;stroke-linejoin:round;stroke-miterlimit:10;}
	.st2{fill:none;stroke:#52B3E9;stroke-width:0.75;stroke-linecap:round;stroke-linejoin:round;stroke-miterlimit:10;}
	.st3{fill:#F7F7F7;stroke:#52B3E9;stroke-width:1.25;stroke-miterlimit:10;}
	.st4{fill:none;stroke:#52B3E9;stroke-width:1.25;stroke-miterlimit:10;}
	.st5{fill:#F7F7F7;stroke:#52B3E9;stroke-width:1.25;stroke-linecap:round;stroke-linejoin:round;stroke-miterlimit:10;}
	.st6{fill:none;stroke:#050DA8;stroke-width:1.25;stroke-linecap:round;stroke-linejoin:round;stroke-miterlimit:10;}
	.st7{fill:#050DA8;}
	.st8{fill:none;stroke:#52B3E9;stroke-width:0.75;stroke-miterlimit:10;}
</style>
<g id="Слой_2">
	<g id="Слой_3">
	</g>
</g>
<g id="Слой_1_1_">
	<ellipse class="st0" cx="256.2" cy="213.1" rx="27.3" ry="22.8"/>
	<rect x="648.5" y="246" class="st1" width="243" height="17.3"/>
	<path class="st2" d="M766.2,68.9c-2-0.1-4-0.3-6.2-0.3s-4.2,0.1-6.2,0.3v61.7h-61.7c-0.1,2-0.3,4-0.3,6.2c0,2,0.1,4.2,0.3,6.2h61.7
		v61.7c2,0.1,4,0.3,6.2,0.3s4.2-0.1,6.2-0.3v-61.7h61.7c0.1-2,0.3-4,0.3-6.2c0-2-0.1-4.2-0.3-6.2h-61.7V68.9z"/>
	<rect x="691.9" y="69.2" class="st1" width="136.3" height="135.7"/>
	<path class="st3" d="M291.7,349c-7,0-13.6,1.7-19.8,4.6c-17.9,6.7-26.2,19-22.6,23.8c5.2,6.6,7.9,4,12.7,2.3
		c4.9-1.7,21,4.2,21,32.4c0,18.9-8.3,29.4-19.3,28.6c-14.7-0.9-35.2-28.6-37.8-31.6c-2.6-3-4.4-2.6-4.4-2.6s-3.3,1.7-2.9,4.2
		c0.4,2.3,21.6,31.6,45.1,45c7.9,6,17.5,9.6,27.6,9.6c27.9,0,50.4-26.1,50.4-58.1S319.6,349,291.7,349z M291.7,453.5
		c-3,0-6.6-3-7.7-5.6c-3.3-7.3,5.9-15.5,7-30.8c1.1-14.2-1.9-27.8-10-37.5c-7.7-9.3-1.7-19.3,8.3-19.6c9.7-0.1,16.3,3.2,19.9,5.3
		c13.9,8.4,22.6,23.3,22.6,41.8C332,432.7,313.9,453.9,291.7,453.5z"/>
	<path class="st0" d="M265.6,317.2L236.4,358c0,0,4.9,15.2,8,18.8c4,4.6,9.6,4.9,18,11.3c8.4,6.4,21,14.6,19.8,24.1
		c-1.3,9.3-11,55.1-11,55.1l43.4,3.2c0,0,1.9-6.4-8.4-10.3c-10.3-3.9-3.2-34.8,0.9-49.8c4-15-5.6-23.8-20-34.7
		c-14.5-11-5.4-13-2.3-21.2"/>
	<path class="st0" d="M289.1,324.9l-18.2,46.7c0,0,8.4,13.5,12.5,16.2c5,3.4,10.5,2.3,20.3,6.4c9.9,4.2,24.1,9,25.1,18.3
		c1,9.5,3,56.1,3,56.1l42.8-7.7c0,0,0.1-6.6-10.7-7.9c-10.9-1.3-11.7-32.9-11.6-48.5c0.1-15.6-11.3-21.6-28.1-28.6
		c-16.8-7-8.4-11.3-7.6-19.9"/>
	<g>
		<rect x="641.2" y="24.3" class="st4" width="236.3" height="8"/>
		<circle class="st4" cx="638.6" cy="28.4" r="8"/>
		<circle class="st4" cx="881.6" cy="28.4" r="8"/>
	</g>
	<path class="st1" d="M503,78.8c8.4,6.4-6.9,14-6.9,24.6s8.6,10.6,8.6,21.2s-8.6,10.6-8.6,21.2c0,10.6,8.6,10.6,8.6,21.2
		s-8.6,10.6-8.6,21.2s15.3,18.2,6.9,24.6c-10.9,8.4-16.5-7.7-30.2-7.7s-13.7,8.6-27.6,8.6c-13.7,0-13.7-8.6-27.6-8.6
		c-13.7,0-13.7,8.6-27.6,8.6c-13.7,0-13.7-8.6-27.6-8.6c-13.7,0-19.3,16-30.2,7.7c-8.4-6.4,6.9-14,6.9-24.6
		c0-10.6-8.6-10.6-8.6-21.2c0-10.6,8.6-10.6,8.6-21.2c0-10.6-8.6-10.6-8.6-21.2s8.6-10.6,8.6-21.2s-15.3-18.2-6.9-24.6
		c10.9-8.4,16.5,7.7,30.2,7.7s13.7-8.6,27.6-8.6c13.7,0,13.7,8.6,27.6,8.6c13.7,0,13.7-8.6,27.6-8.6c13.7,0,15.3,11.9,28.6,8.4
		C489.4,82.5,492.1,70.5,503,78.8z"/>
	<g>
		<polyline class="st1" points="486.7,95.7 486.7,196 348.7,196 348.7,95.7 486.7,95.7 		"/>
	</g>
	<polyline class="st2" points="358.7,184 392.2,150.5 417,175.3 478.4,113.8 	"/>
	<circle class="st2" cx="414.2" cy="136" r="11"/>
	<path class="st3" d="M240.1,393.8h-42.5c-13.9,0-25.2-11.3-25.2-25.2v-39.2c0-13.9,11.3-25.2,25.2-25.2h42.5
		c13.9,0,25.2,11.3,25.2,25.2v39.2C265.3,382.5,254,393.8,240.1,393.8z"/>
	<path class="st3" d="M306,407.1H195.4c-12.9,0-23.2-10.5-23.2-23.2v-5.3c0-12.9,10.5-23.2,23.2-23.2H306
		c12.9,0,23.2,10.5,23.2,23.2v5.3C329.2,396.6,318.9,407.1,306,407.1z"/>
	<path class="st5" d="M859.6,91.2c-12.5,0-12.5-11.7-24.9-11.7c-12.5,0-12.5,11.7-24.9,11.7c-12.5,0-12.5-11.7-24.9-11.7
		c-12.5,0-12.5,11.7-24.9,11.7S747.5,79.5,735,79.5c-12.5,0-12.5,11.7-24.9,11.7c-12.5,0-12.5-11.7-24.9-11.7
		c-12.5,0-12.5,11.7-24.9,11.7V16.5H861L859.6,91.2z"/>
	<path class="st0" d="M296.4,355.6h-81.8v-60.1c0-23.6,19.2-42.8,42.8-42.8h9.6c16.2,0,29.4,13.2,29.4,29.4V355.6z"/>
	<path class="st0" d="M331.8,353.8c13.6,14,36.4,79.8,36.4,79.8s-13.5,19.5-45.7,19.8c-32.2,0.3-53.8-6.9-53.8-6.9
		s1.1-49.1-15.2-59.1s-41.2-17-41.2-33.5C212.1,337.5,313.1,334.6,331.8,353.8z"/>
	<path class="st3" d="M184.7,340.4c-7.7,0-15.2,1.9-21.9,5.2c-19.8,7.4-28.9,21-25.1,26.3c5.6,7.3,8.7,4.4,14,2.6
		c5.3-2,23.3,4.6,23.3,35.8c0,20.9-9.2,32.5-21.3,31.8c-16.3-1-39.1-31.8-42-35.1c-2.9-3.3-4.9-2.9-4.9-2.9s-3.7,1.9-3.2,4.6
		c0.6,2.6,24.1,35.1,50,49.8c8.7,6.7,19.3,10.6,30.6,10.6c30.9,0,55.8-28.8,55.8-64.4C240.5,369.3,215.6,340.4,184.7,340.4z
		 M184.7,456.2c-3.3-0.1-7.3-3.3-8.6-6.2c-3.6-8.2,6.4-17,7.7-34.1c1.1-15.8-2.1-30.8-11.2-41.7c-8.6-10.3-2-21.5,9.3-21.6
		c10.7-0.3,18.2,3.4,22.1,5.9c15.3,9.3,25.2,25.9,25.2,46.3C229.4,433.2,209.3,456.8,184.7,456.2z"/>
	<path class="st0" d="M276.2,254v15.6c-0.1,4.2-4.4,7.7-9.9,8c-5.4,0.3-9.9-3-10-7.2l-0.1-15.6L276.2,254z"/>
	<circle class="st0" cx="271.2" cy="240.6" r="27.6"/>
	<path class="st0" d="M237.4,240.4l68.6-5.7l-1.1-13c-1-11.9-11.5-20.8-23.5-19.8l-25.3,2.1c-11.9,1-20.8,11.5-19.8,23.5
		L237.4,240.4z"/>
	<path class="st0" d="M268.8,257.6c3.9,3.7,10,3.6,13.7-0.3"/>
	<g>
		<path class="st0" d="M256.3,362.3c0,0,8.2,18.9,10.2,18.8c1.9-0.1-0.3-7.6-0.4-8.2c0,0,4.9,5.6,7.2,6.4c1.7,0.7,2.9-2.7,2.9-2.7
			c1.7,1.4,3.2,0.6,4-1.4c0.9-2-6.7-11.7-6.7-11.7s8,2.7,10.2,1.4c2.1-1.3-4.9-5.3-8.4-7.9c-3.6-2.6-6.7-4.9-6.7-4.9"/>
		<path class="st0" d="M232.5,283.5l-2.6,7.2c0,0-18.9,20-6,36.1c12.9,16,30.8,35.9,30.8,35.9l13.3-10.5c0,0-19.8-23.1-26.6-31.1
			c-8.7-10.2,5.9-24.6,5.9-24.6"/>
	</g>
	<g>
		<path class="st0" d="M308.9,348.4c0,0,1.4,19.2-0.1,19.9c-1.6,0.7-3-6.3-3.2-6.9c0,0-1.6,6.7-3.2,8.4c-1.1,1.3-3.4-1-3.4-1
			c-0.9,2-2.3,1.9-3.9,0.6s0.4-12.6,0.4-12.6s-5.4,5.7-7.7,5.6c-2.3-0.3,1.7-6.4,3.6-10.2c1.9-3.7,3.4-7,3.4-7"/>
		<path class="st0" d="M297,279.5c0,0,25.3,20.3,21.6,38.9c-3.6,18.8-8.4,29.4-8.4,29.4l-15.5-2.9c0,0,4.2-17.9,6.3-27.5
			c2.7-12.2-14-19-14-19"/>
	</g>
	<path class="st0" d="M280.4,247c0-2.1,4.2-3.9,9.3-3.9"/>
	<path class="st0" d="M269.3,248c0-2.1-4.2-3.7-9.5-3.7"/>
	<rect x="378.6" y="361.1" class="st4" width="302.7" height="16.8"/>
	<g>
		<polygon class="st4" points="420.3,471.1 401.4,471.1 439,377.9 457.9,377.9 		"/>
		<polygon class="st4" points="639.5,471.1 658.4,471.1 620.7,377.9 601.8,377.9 		"/>
	</g>
	<rect x="848.5" y="212.4" class="st1" width="43.8" height="11.5"/>
	<rect x="853.7" y="223.8" class="st1" width="32.9" height="22.2"/>
	<path class="st1" d="M853.8,186.9c0,0,5.3,1.4,10.7,10.5c3.6,6.2,3.7,15,3.7,15h-9.7C858.4,212.4,859.3,196.5,853.8,186.9z"/>
	<path class="st1" d="M884.3,186.9c0,0-5.3,1.4-10.7,10.5c-3.6,6.2-3.7,15-3.7,15h9.7C879.6,212.4,878.9,196.5,884.3,186.9z"/>
	<line class="st1" x1="869.9" y1="173.6" x2="869.9" y2="212.4"/>
	<path class="st1" d="M880.1,163.1c0-2,7.9-5.4,7.2-7.2c-0.7-1.7-8.9,1.3-10.2,0c-1.3-1.3,1.7-9.5,0-10.2c-1.7-0.7-5.2,7.2-7.2,7.2
		s-5.4-7.9-7.2-7.2c-1.7,0.7,1.3,8.9,0,10.2s-9.5-1.7-10.2,0c-0.7,1.7,7.2,5.2,7.2,7.2s-7.9,5.4-7.2,7.2c0.7,1.7,8.9-1.3,10.2,0
		c1.3,1.3-1.7,9.5,0,10.2c1.7,0.7,5.2-7.2,7.2-7.2s5.4,7.9,7.2,7.2c1.7-0.7-1.3-8.9,0-10.2c1.3-1.3,9.5,1.7,10.2,0
		C887.9,168.5,880.1,165.1,880.1,163.1z"/>
	<circle class="st2" cx="869.9" cy="163.1" r="3.3"/>
	<path class="st4" d="M414.5,317.2c-3.3-4.9-9.3-6.3-13.6-3.4c-3.2,2.1-4.4,6-3.6,9.9L382,333.9l2.1,3.2l6.7,0.1l0.6-4.4l4.9,0.7
		l-0.4-3.7l3.3,1.9l2.4-1.6c3.3,2.7,7.9,3.3,11.3,1C417,328.2,417.8,322,414.5,317.2z M406.1,322.9c-1.1-1.6-0.7-3.9,1-5
		c1.6-1.1,3.9-0.7,5,1c1.1,1.6,0.7,3.9-1,5C409.4,325.1,407.2,324.6,406.1,322.9z"/>
	<path class="st6" d="M448.3,349.3l-13-6.6c-5.9-3-8.3-10.2-5.3-16.2l0,0c3-5.9,10.2-8.3,16.2-5.3l13,6.6c5.9,3,8.3,10.2,5.3,16.2
		l0,0C461.5,350,454.3,352.3,448.3,349.3z"/>
	<path class="st6" d="M433.1,333.4L433.1,333.4c-0.7-0.4-1-1.3-0.7-2l3.6-7.2c0.4-0.7,1.3-1,2-0.7l0,0c0.7,0.4,1,1.3,0.7,2l-3.6,7.2
		C434.7,333.5,433.9,333.8,433.1,333.4z"/>
	<path class="st7" d="M446.5,345.5L446.5,345.5c-0.1-0.1-0.3-0.3-0.1-0.6l8-15.8c0.1-0.1,0.3-0.3,0.6-0.1l0,0
		c0.1,0.1,0.3,0.3,0.1,0.6l-8,15.8C446.9,345.5,446.6,345.5,446.5,345.5z"/>
	<path class="st7" d="M458.9,341.4L458.9,341.4c-0.1,0.1-0.3,0.3-0.6,0.1l-15.8-8c-0.1-0.1-0.3-0.3-0.1-0.6l0,0
		c0.1-0.1,0.3-0.3,0.6-0.1l15.8,8C458.9,340.9,458.9,341.2,458.9,341.4z"/>
	<path class="st8" d="M413.8,315.7c2.9-2.6,7.9-3.4,13-1.7c4.2,1.3,7.3,3.9,8.7,6.9"/>
	<path class="st8" d="M436.2,326.6c-1.6,4.9-8.3,7-15,4.9s-11-7.9-9.5-12.7"/>
	<path class="st6" d="M475.2,331.5c-0.3-4.2-2.1-8.2-5.4-11.2s-7.6-4.4-11.7-4.3"/>
	<path class="st6" d="M490.4,326.5c-1.3-6.7-4.6-13-10-18c-5.4-4.9-12.2-7.6-18.9-8.2"/>
	<path class="st6" d="M483,328.9c-0.9-5.4-3.3-10.7-7.7-14.6c-4.4-4-9.9-6-15.3-6.3"/>
	<rect x="592.1" y="348.7" class="st4" width="55.3" height="12.3"/>
	<rect x="581.3" y="336.4" class="st4" width="55.3" height="12.3"/>
	<rect x="588.4" y="323.2" class="st4" width="59" height="13.2"/>
	<g>
		<rect x="533.1" y="253.7" class="st4" width="42.1" height="5.9"/>
		<path class="st4" d="M562.4,253.7h-17.3v-3.3c0-1.3,1-2.3,2.3-2.3H560c1.3,0,2.3,1,2.3,2.3v3.3H562.4z"/>
		<g>
			<polygon class="st4" points="591.7,306.2 516.8,306.2 536.2,259.6 572.2,259.6 			"/>
			<line class="st8" x1="571.2" y1="282.1" x2="576.6" y2="306.2"/>
			<line class="st8" x1="563.9" y1="290.8" x2="565.6" y2="306.2"/>
		</g>
	</g>
	<path class="st4" d="M563,361.1c0,0,11.9-28.5,11.9-36.9c0-8.3-14.3-18.2-14.3-18.2h-13c0,0-14.3,9.7-14.3,18.2
		c0,8.3,11.9,36.9,11.9,36.9H563z"/>
	<line class="st8" x1="841.1" y1="38.4" x2="841.1" y2="81.8"/>
	<line class="st8" x1="794.1" y1="81.8" x2="794.1" y2="60"/>
	<line class="st8" x1="742.7" y1="81.8" x2="742.7" y2="38.4"/>
	<line class="st4" x1="-184.9" y1="471.1" x2="1217.1" y2="471.1"/>
</g>
<g id="Слой_4">
</g>
<g id="Слой_5">
</g>
</svg>
