<?xml version="1.0" encoding="utf-8"?>
<!-- Generator: Adobe Illustrator 21.1.0, SVG Export Plug-In . SVG Version: 6.00 Build 0)  -->
<svg version="1.1" id="Слой_1" xmlns="http://www.w3.org/2000/svg" xmlns:xlink="http://www.w3.org/1999/xlink" x="0px" y="0px"
	 viewBox="0 0 239.9 230.9" style="enable-background:new 0 0 239.9 230.9;" xml:space="preserve">
<style type="text/css">
	.st0{fill:#FFFFFF;stroke:#14B6EF;stroke-miterlimit:10;}
	.st1{fill:none;stroke:#14B6EF;stroke-width:0.75;stroke-linecap:round;stroke-linejoin:round;stroke-miterlimit:10;}
	.st2{fill:#FFFFFF;}
	.st3{fill:none;stroke:#14B6EF;stroke-miterlimit:10;}
	.st4{fill:#FFFFFF;stroke:#14B6EF;stroke-width:0.75;stroke-miterlimit:10;}
	.st5{fill:#FFFFFF;stroke:#14B6EF;stroke-width:1.25;stroke-miterlimit:10;}
	.st6{fill:none;stroke:#14B6EF;stroke-width:0.75;stroke-miterlimit:10;}
	.st7{fill:#FFFFFF;stroke:#0400AF;stroke-width:1.25;stroke-miterlimit:10;}
	.st8{fill:none;stroke:#14B6EF;stroke-width:1.25;stroke-linecap:round;stroke-linejoin:round;stroke-miterlimit:10;}
	.st9{fill:none;stroke:#14B6EF;stroke-linecap:round;stroke-linejoin:round;stroke-miterlimit:10;}
	.st10{fill:#FFFFFF;stroke:#0400AF;stroke-width:1.25;stroke-linecap:round;stroke-linejoin:round;stroke-miterlimit:10;}
	.st11{fill:none;stroke:#14B6EF;stroke-width:1.25;stroke-miterlimit:10;}
	.st12{fill:none;stroke:#0400AF;stroke-miterlimit:10;}
	.st13{fill:none;stroke:#0400AF;stroke-width:1.25;stroke-miterlimit:10;}
	.st14{fill:none;stroke:#14B6EF;stroke-width:0.75;stroke-linecap:round;stroke-miterlimit:10;}
	.st15{fill:none;stroke:#14B6EF;stroke-width:0.5692;stroke-linecap:round;stroke-miterlimit:10;}
	.st16{fill:#FFFFFF;stroke:#0400AF;stroke-width:1.25;stroke-linecap:round;stroke-miterlimit:10;}
	.st17{fill:#0400AF;}
	.st18{fill:none;stroke:#FFFFFF;stroke-width:1.25;stroke-linecap:round;stroke-linejoin:round;stroke-miterlimit:10;}
	.st19{fill:none;stroke:#0400AF;stroke-width:1.25;stroke-linecap:round;stroke-linejoin:round;stroke-miterlimit:10;}
	.st20{fill:none;stroke:#0400AF;stroke-width:0.75;stroke-linecap:round;stroke-linejoin:round;stroke-miterlimit:10;}
	.st21{fill:none;stroke:#14B6EF;stroke-width:1.25;stroke-linecap:round;stroke-miterlimit:10;}
	.st22{fill:#FFFFFF;stroke:#14B6EF;stroke-width:0.75;stroke-linecap:round;stroke-linejoin:round;stroke-miterlimit:10;}
	.st23{fill:#14B6EF;}
	.st24{fill:#FFFFFF;stroke:#14B6EF;stroke-width:1.25;stroke-linecap:round;stroke-linejoin:round;stroke-miterlimit:10;}
	.st25{fill:none;stroke:#14B6EF;stroke-width:1.1933;stroke-miterlimit:10;}
	.st26{fill:none;stroke:#0400AF;stroke-width:0.75;stroke-linecap:round;stroke-miterlimit:10;}
	.st27{fill:none;stroke:#14B6EF;stroke-width:0.5967;stroke-linecap:round;stroke-linejoin:round;stroke-miterlimit:10;}
	.st28{fill:none;}
	.st29{fill:#FFFFFF;stroke:#14B6EF;stroke-width:1.155;stroke-miterlimit:10;}
	.st30{fill:#FFFFFF;stroke:#14B6EF;stroke-width:1.2763;stroke-miterlimit:10;}
	.st31{fill:none;stroke:#14B6EF;stroke-width:0.6664;stroke-linecap:round;stroke-miterlimit:10;}
	.st32{fill:none;stroke:#14B6EF;stroke-width:1.2763;stroke-miterlimit:10;}
	.st33{fill:none;stroke:#14B6EF;stroke-width:0.6664;stroke-linecap:round;stroke-linejoin:round;stroke-miterlimit:10;}
	.st34{fill:#FFFFFF;stroke:#14B6EF;stroke-width:0.9787;stroke-miterlimit:10;}
	.st35{fill:none;stroke:#0400AF;stroke-width:0.75;stroke-miterlimit:10;}
	.st36{fill:#FFFFFF;stroke:#0400AF;stroke-miterlimit:10;}
	.st37{fill:#FFFFFF;stroke:#0400AF;stroke-width:0.75;stroke-miterlimit:10;}
	.st38{clip-path:url(#SVGID_2_);}
	.st39{fill:#6E6FE3;}
	.st40{fill:#FA6B6F;}
	.st41{fill:#118DF0;}
	.st42{fill:#DA5C53;}
	.st43{fill:#A8E4B1;}
	.st44{fill:#FFFFFF;stroke:#0400AF;stroke-linecap:round;stroke-linejoin:round;stroke-miterlimit:10;}
	.st45{fill:none;stroke:#0400AF;stroke-linecap:round;stroke-linejoin:round;stroke-miterlimit:10;}
	.st46{font-family:'MyriadPro-Regular';}
	.st47{font-size:9.5915px;}
</style>
<path class="st0" d="M201,193.6c0.3,0,0.2-25-10.7-34.3c-11-9.3-18.7-6.9-18.7-6.9s2.9,5,2.2,7.7c-0.6,2.6,3,6.4,3,6.4
	s3.1,1.4,2.9,4.9s0.4,5.3,1.3,5.7c0.9,0.4,5.5-0.5,6,3.6c0.5,4.1,0.4,6.8,0.4,6.8l5.1,6.7"/>
<path class="st1" d="M195.5,193.9c0,0,0-26.2-16.7-37.6"/>
<g>
	<path class="st2" d="M209.9,170.7c0,1.9-2,3.7-2.1,5.5c-0.1,1.9,1.8,3.9,1.6,5.7c-0.2,1.9-2.4,3.5-2.7,5.2c-0.3,2,1.2,4.2,0.8,5.8
		c-0.6,2-3,3.1-3.7,4.5c-1.1,2.3-1.6,5.1-2.9,5.1c-1.4,0-1.8-2.8-2.9-5.1c-0.7-1.4-3.2-2.4-3.7-4.5c-0.4-1.6,1.1-3.9,0.8-5.8
		c-0.3-1.7-2.5-3.3-2.7-5.2c-0.2-1.8,1.7-3.8,1.6-5.7c-0.1-1.8-2.1-3.6-2.1-5.5c0-1.9,2-3.7,2.1-5.5c0.1-1.9-1.8-3.9-1.6-5.7
		c0.2-1.9,2.4-3.5,2.7-5.2c0.3-2-1.2-4.2-0.8-5.8c0.6-2,3-3.1,3.7-4.5c1.1-2.3,1.6-5.1,2.9-5.1c1.4,0,1.8,2.8,2.9,5.1
		c0.7,1.4,3.2,2.4,3.7,4.5c0.4,1.6-1.1,3.9-0.8,5.8c0.3,1.7,2.5,3.3,2.7,5.2c0.2,1.8-1.7,3.8-1.6,5.7
		C207.9,167,209.9,168.8,209.9,170.7z"/>
	<path class="st3" d="M209.9,170.7c0,1.9-2,3.7-2.1,5.5c-0.1,1.9,1.8,3.9,1.6,5.7c-0.2,1.9-2.4,3.5-2.7,5.2c-0.3,2,1.2,4.2,0.8,5.8
		c-0.6,2-3,3.1-3.7,4.5c-1.1,2.3-1.6,5.1-2.9,5.1c-1.4,0-1.8-2.8-2.9-5.1c-0.7-1.4-3.2-2.4-3.7-4.5c-0.4-1.6,1.1-3.9,0.8-5.8
		c-0.3-1.7-2.5-3.3-2.7-5.2c-0.2-1.8,1.7-3.8,1.6-5.7c-0.1-1.8-2.1-3.6-2.1-5.5c0-1.9,2-3.7,2.1-5.5c0.1-1.9-1.8-3.9-1.6-5.7
		c0.2-1.9,2.4-3.5,2.7-5.2c0.3-2-1.2-4.2-0.8-5.8c0.6-2,3-3.1,3.7-4.5c1.1-2.3,1.6-5.1,2.9-5.1c1.4,0,1.8,2.8,2.9,5.1
		c0.7,1.4,3.2,2.4,3.7,4.5c0.4,1.6-1.1,3.9-0.8,5.8c0.3,1.7,2.5,3.3,2.7,5.2c0.2,1.8-1.7,3.8-1.6,5.7
		C207.9,167,209.9,168.8,209.9,170.7z"/>
</g>
<rect x="34.8" y="32.2" class="st3" width="21" height="24"/>
<rect x="58.8" y="32.2" class="st3" width="22" height="24"/>
<rect x="34.8" y="59.2" class="st3" width="21" height="23"/>
<rect x="58.8" y="59.2" class="st3" width="22" height="23"/>
<g>
	<g>
		
			<rect x="15.3" y="18.5" transform="matrix(-1 -4.489932e-11 4.489932e-11 -1 104.5085 40.6185)" class="st4" width="73.9" height="3.7"/>
		<path class="st5" d="M85.6,21c-0.5-2.6,1.7-4.9,4.4-4.4c1.4,0.3,2.6,1.5,2.9,2.9c0.5,2.6-1.7,4.9-4.4,4.4
			C87,23.7,85.9,22.5,85.6,21z"/>
		<path class="st5" d="M9.8,21c-0.5-2.6,1.7-4.9,4.4-4.4c1.4,0.3,2.6,1.5,2.9,2.9c0.5,2.6-1.7,4.9-4.4,4.4
			C11.3,23.7,10.1,22.5,9.8,21z"/>
	</g>
	
		<rect x="20.1" y="18.5" transform="matrix(-1 -4.480783e-11 4.480783e-11 -1 65.5412 122.1884)" class="st5" width="25.3" height="85.3"/>
</g>
<line class="st6" x1="37.9" y1="80.5" x2="37.9" y2="103.6"/>
<line class="st6" x1="28.1" y1="18.5" x2="28.1" y2="75.9"/>
<rect x="29" y="145.3" class="st5" width="8" height="74"/>
<rect x="154.4" y="145.3" class="st5" width="8" height="74"/>
<rect x="29" y="143" class="st5" width="133.4" height="7.9"/>
<path class="st7" d="M154.6,138.3L154.6,138.3c-0.7,0-1.3-0.6-1.3-1.3v-22.7c0-0.7,0.6-1.3,1.3-1.3l0,0c0.7,0,1.3,0.6,1.3,1.3v22.7
	C155.8,137.7,155.3,138.3,154.6,138.3z"/>
<line class="st5" x1="-4.9" y1="219.4" x2="273.2" y2="219.4"/>
<rect x="52.7" y="94.4" class="st5" width="64.6" height="36.9"/>
<rect x="70.8" y="84.8" transform="matrix(-1.836970e-16 1 -1 -1.836970e-16 198.5724 27.963)" class="st4" width="29" height="57"/>
<rect x="81.3" y="131.3" class="st0" width="7.4" height="7.4"/>
<polygon class="st0" points="88.7,138.7 81.3,138.7 72.6,142.2 97.3,142.2 "/>
<path class="st7" d="M151.1,128.3h-20.4c-3.7,0-6.7,3-6.7,6.7v7.2h33.8v-7.2C157.7,131.3,154.8,128.3,151.1,128.3z"/>
<rect x="127.1" y="135.2" class="st37" width="10.6" height="3.1"/>
<rect x="140.5" y="135.2" class="st37" width="2.8" height="3.1"/>
<rect x="146.1" y="135.2" class="st37" width="2.8" height="3.1"/>
<circle class="st5" cx="49.5" cy="215" r="3.3"/>
<circle class="st5" cx="82.5" cy="215" r="3.3"/>
<rect x="44.9" y="122.9" class="st5" width="5.3" height="54.7"/>
<path class="st5" d="M55,125.5h-4.8v32h5.5c2.3,0,4.2-1.9,4.2-4.2v-22.8C59.9,127.8,57.7,125.5,55,125.5z"/>
<path class="st5" d="M50.2,169.9v3.4H85v-4.1c0-2.2-1.8-4-4-4H54.9C52.3,165.2,50.2,167.3,50.2,169.9z"/>
<rect x="65.4" y="158.1" transform="matrix(6.123234e-17 -1 1 6.123234e-17 -107.8876 243.0736)" class="st5" width="4.4" height="34.8"/>
<rect x="62.9" y="178" class="st5" width="5.4" height="31.8"/>
<path class="st5" d="M87.1,213.6h-43v-0.7c0-1.7,1.3-3,3-3h37c1.7,0,3,1.3,3,3V213.6z"/>
<circle class="st7" cx="176.2" cy="56.5" r="13.9"/>
<circle class="st37" cx="176.2" cy="56.5" r="9.6"/>
<g>
	<path class="st37" d="M164,104.6c-2.7-1.5-5.7-2.4-9-2.4c-3.3,0-6.4,0.9-9.1,2.5"/>
	<path class="st37" d="M147.5,107.4c2.2-1.3,4.7-2,7.5-2c2.7,0,5.2,0.7,7.4,2"/>
	<path class="st37" d="M160.7,110.2c-1.7-1-3.7-1.5-5.8-1.5c-2.1,0-4.1,0.6-5.8,1.6"/>
</g>
<g>
	<path class="st37" d="M148,44.2c-2.1,3.6-3.3,7.8-3.3,12.3c0,4.5,1.2,8.7,3.4,12.4"/>
	<path class="st37" d="M151.9,66.6c-1.7-3-2.8-6.4-2.8-10.1c0-3.7,1-7.1,2.7-10.1"/>
	<path class="st37" d="M155.7,48.6c-1.3,2.3-2.1,5-2.1,7.9c0,2.9,0.8,5.6,2.2,7.9"/>
</g>
<g>
	<path class="st37" d="M204.4,44.2c2.1,3.6,3.3,7.8,3.3,12.3c0,4.5-1.2,8.7-3.4,12.4"/>
	<path class="st37" d="M200.5,66.6c1.7-3,2.8-6.4,2.8-10.1c0-3.7-1-7.1-2.7-10.1"/>
	<path class="st37" d="M196.7,48.6c1.3,2.3,2.1,5,2.1,7.9c0,2.9-0.8,5.6-2.2,7.9"/>
</g>
<text transform="matrix(1 0 0 1 173.0148 60.7202)" class="st17 st46 st47">U</text>
<path class="st0" d="M198.1,192.7c-0.3,0,1.8-25.3,13.5-33.8c11.7-8.4,19.2-5.3,19.2-5.3s-3.3,4.8-2.8,7.5s-3.5,6.2-3.5,6.2
	s-3.2,1.2-3.3,4.7c-0.1,3.6-0.8,5.4-1.7,5.6s-5.4-1-6.2,3.1c-0.8,4.1-1,6.9-1,6.9l-5.6,6.3"/>
<path class="st1" d="M222.8,164.4c1-1,1.9-2.3,2-2.8c-0.2-1.6,0.2-3.5,0.9-5.1"/>
<path class="st1" d="M209.3,185.7c0.1-1.3,0.4-3.4,0.9-6c0.7-3.7,3.3-5.6,7.7-5.6"/>
<path class="st1" d="M201.3,192.4c0,0,2.1-22.8,14.5-31.8"/>
<polygon class="st0" points="213.6,195.8 185.4,195.8 188.9,218.9 210,218.9 "/>
<path class="st0" d="M214.9,195.8H184c-1.2,0-2.2-1-2.2-2.2v0c0-1.2,1-2.2,2.2-2.2h30.9c1.2,0,2.2,1,2.2,2.2v0
	C217.1,194.8,216.1,195.8,214.9,195.8z"/>
<line class="st3" x1="199.3" y1="200.2" x2="213.3" y2="200.2"/>
</svg>
