<?xml version="1.0" encoding="utf-8"?>
<!-- Generator: Adobe Illustrator 18.0.0, SVG Export Plug-In . SVG Version: 6.00 Build 0)  -->
<!DOCTYPE svg PUBLIC "-//W3C//DTD SVG 1.1 Basic//EN" "http://www.w3.org/Graphics/SVG/1.1/DTD/svg11-basic.dtd">
<svg version="1.1" baseProfile="basic" id="Слой_1"
	 xmlns="http://www.w3.org/2000/svg" xmlns:xlink="http://www.w3.org/1999/xlink" x="0px" y="0px" viewBox="0 0 31.8 38.3"
	 xml:space="preserve">
<g>
	
		<path fill="none" stroke="#050DA8" stroke-width="1.25" stroke-linecap="round" stroke-linejoin="round" stroke-miterlimit="10" d="
		M16.1,36.6H2.9c-1.4,0-2.3-1.4-2.3-2.8V2.7c0-1.4,0.9-2.1,2.3-2.1h16.9c1.4,0,2.9,0.7,2.9,2.1v26.2"/>
	
		<polyline fill="none" stroke="#050DA8" stroke-width="1.25" stroke-linecap="round" stroke-linejoin="round" stroke-miterlimit="10" points="
		14.3,29.6 3.6,29.6 3.6,4.6 18.6,4.6 18.6,25.8 	"/>
	
		<line fill="none" stroke="#050DA8" stroke-width="1.25" stroke-linecap="round" stroke-linejoin="round" stroke-miterlimit="10" x1="8.1" y1="2.6" x2="14.1" y2="2.6"/>
	
		<circle fill="none" stroke="#050DA8" stroke-width="1.25" stroke-linecap="round" stroke-linejoin="round" stroke-miterlimit="10" cx="11.3" cy="32.6" r="1.6"/>
	
		<path fill="none" stroke="#050DA8" stroke-width="1.25" stroke-linecap="round" stroke-linejoin="round" stroke-miterlimit="10" d="
		M17,37.7c0,0,0.5-3.4-1.1-6.1c-2.6-4.5-4.9-9.1-3-10.2c1.8-1.1,3.6,0.8,4.8,3c1.9,3.3,3.4,4.2,3.4,4.2s2.5,0.4,3.9,2.4"/>
	
		<path fill="none" stroke="#050DA8" stroke-width="1.25" stroke-linecap="round" stroke-linejoin="round" stroke-miterlimit="10" d="
		M22.8,8.9c0,0,6,6.2,7.7,9.4c1.6,3.2,0,19.4,0,19.4"/>
	
		<path fill="none" stroke="#050DA8" stroke-width="1.25" stroke-linecap="round" stroke-linejoin="round" stroke-miterlimit="10" d="
		M22.8,17.9c0,0,1.2,2.2,1.5,4s-1.6,6.9-1.6,6.9"/>
	
		<line fill="none" stroke="#050DA8" stroke-width="1.25" stroke-linecap="round" stroke-linejoin="round" stroke-miterlimit="10" x1="24.9" y1="22.2" x2="28" y2="20.3"/>
</g>
</svg>
