<?xml version="1.0" encoding="utf-8"?>
<!-- Generator: Adobe Illustrator 18.0.0, SVG Export Plug-In . SVG Version: 6.00 Build 0)  -->
<!DOCTYPE svg PUBLIC "-//W3C//DTD SVG 1.1 Basic//EN" "http://www.w3.org/Graphics/SVG/1.1/DTD/svg11-basic.dtd">
<svg version="1.1" baseProfile="basic" id="Слой_1"
	 xmlns="http://www.w3.org/2000/svg" xmlns:xlink="http://www.w3.org/1999/xlink" x="0px" y="0px" viewBox="0 0 38.1 44.8"
	 xml:space="preserve">
<g>
	
		<path fill="none" stroke="#050DA8" stroke-width="1.25" stroke-linecap="round" stroke-linejoin="round" stroke-miterlimit="10" d="
		M25.8,41.3c0,1.6-1.3,2.8-2.8,2.8h-8.3c-1.6,0-2.8-1.3-2.8-2.8V27c0-1.6,1.3-2.8,2.8-2.8h8.3c1.6,0,2.8,1.3,2.8,2.8V41.3z"/>
	
		<path fill="none" stroke="#050DA8" stroke-width="1.25" stroke-linecap="round" stroke-linejoin="round" stroke-miterlimit="10" d="
		M22.8,32.3c0,1.6-1.3,2.8-2.8,2.8h-1.3c-1.6,0-2.8-1.3-2.8-2.8V31c0-1.6,1.3-2.8,2.8-2.8h1.3c1.6,0,2.8,1.3,2.8,2.8V32.3z"/>
	
		<path fill="none" stroke="#050DA8" stroke-width="1.25" stroke-linecap="round" stroke-linejoin="round" stroke-miterlimit="10" d="
		M26.6,17.5c-4.2-4.2-10.9-4.2-15.1,0"/>
	
		<path fill="none" stroke="#050DA8" stroke-width="1.25" stroke-linecap="round" stroke-linejoin="round" stroke-miterlimit="10" d="
		M32.4,13.3c-7.4-7.4-19.3-7.4-26.7,0"/>
	
		<path fill="none" stroke="#050DA8" stroke-width="1.25" stroke-linecap="round" stroke-linejoin="round" stroke-miterlimit="10" d="
		M37.5,8.3C27.3-1.9,10.8-1.9,0.6,8.3"/>
</g>
</svg>
