<?xml version="1.0" standalone="no"?>
<!DOCTYPE svg PUBLIC "-//W3C//DTD SVG 20010904//EN"
 "http://www.w3.org/TR/2001/REC-SVG-20010904/DTD/svg10.dtd">
<svg version="1.0" xmlns="http://www.w3.org/2000/svg"
 width="260.000000pt" height="260.000000pt" viewBox="0 0 260.000000 260.000000"
 preserveAspectRatio="xMidYMid meet">
<metadata>
Created by potrace 1.11, written by Peter Selinger 2001-2013
</metadata>
<g transform="translate(0.000000,260.000000) scale(0.100000,-0.100000)"
fill="#000000" stroke="none">
<path d="M1164 2461 c-612 -111 -1004 -569 -1004 -1171 0 -429 200 -791 556
-1007 112 -68 247 -120 399 -154 132 -30 390 -37 525 -14 361 60 636 262 804
590 19 38 34 70 33 71 -4 2 -580 266 -592 270 -7 3 -25 -23 -44 -60 -44 -90
-129 -174 -224 -221 -66 -32 -88 -38 -164 -42 -267 -15 -492 149 -559 408 -22
84 -22 234 0 318 87 333 460 511 747 355 74 -41 162 -132 200 -209 17 -36 33
-65 35 -65 3 0 585 270 597 277 12 7 -72 160 -134 243 -149 201 -345 331 -598
397 -133 35 -424 42 -577 14z"/>
</g>
</svg>
